K-562-SM-2D7VW	SRR598042	Poor D-statistic,K-562 Control
GTEX-PX3G-0006-SM-2I3E4	SRR598300	Lower Quality Replicate
GTEX-N7MT-1326-SM-2I3FV	SRR598509	Poor D-statistic
GTEX-Q2AG-1026-SM-2HMJX	SRR598695	Lower Quality Replicate
K-562-SM-2D7VY	SRR598749	Poor D-statistic,K-562 Control
GTEX-Q2AG-0005-SM-2HMK3	SRR598831	Poor D-statistic,Lower Quality Replicate,Mapping rate lt .20
GTEX-QMRM-0826-SM-2I5G7	SRR599154	Lower Quality Replicate
GTEX-QDVN-2126-SM-2I3FR	SRR599313	Poor D-statistic,Lower Quality Replicate
GTEX-OHPN-0011-R10A-SM-2I5FL	SRR599510	Poor D-statistic,Lower Quality Replicate,Mapping rate lt .20,Mismatch rate gt 0.008
GTEX-PSDG-0226-SM-2I5FR	SRR600493	Lower Quality Replicate,Mapping rate lt .20
GTEX-OHPL-0526-SM-2HMIX	SRR600584	Lower Quality Replicate
GTEX-NPJ8-0011-R1a-SM-2HMLC	SRR600724	Lower Quality Replicate
GTEX-N7MT-0011-R11A-SM-2I3DZ	SRR600754	Poor D-statistic
GTEX-QEG4-0426-SM-2I5GK	SRR600829	Lower Quality Replicate
GTEX-OHPM-0326-SM-2HMKT	SRR600924	Lower Quality Replicate,Mapping rate lt .20
GTEX-PWCY-0005-SM-2I3E2	SRR601038	Poor D-statistic,Lower Quality Replicate
GTEX-Q2AG-0126-SM-2HMLB	SRR601068	Lower Quality Replicate,Mapping rate lt .20
GTEX-OHPN-0011-R6A-SM-2I5FH	SRR601201	Poor D-statistic
GTEX-OHPN-0011-R3A-SM-2I5FC	SRR601755	Poor D-statistic
GTEX-OHPN-0011-R8A-SM-2I5FJ	SRR602131	Poor D-statistic,Lower Quality Replicate,Mapping rate lt .20,Mismatch rate gt 0.008
GTEX-OXRO-0011-R5A-SM-2I5EG	SRR602271	Poor D-statistic
GTEX-Q734-1926-SM-2I5EV	SRR602282	Poor D-statistic
GTEX-N7MT-0011-R3a-SM-2I3GC	SRR602365	Poor D-statistic
GTEX-OOBJ-0326-SM-2I3F8	SRR602461	Lower Quality Replicate
GTEX-OHPN-2626-SM-2I5H1	SRR602753	Poor D-statistic
GTEX-QDVN-0726-SM-2I3FO	SRR603092	Lower Quality Replicate
GTEX-OIZG-0726-SM-2I5GS	SRR603292	Poor D-statistic,Lower Quality Replicate
GTEX-NPJ8-0007-SM-2D7VX	SRR603330	Poor D-statistic
GTEX-OXRN-1226-SM-2I5EL	SRR603365	Poor D-statistic
GTEX-P4QS-0005-SM-2I3EY	SRR603472	Poor D-statistic
GTEX-POMQ-0006-SM-2I5F4	SRR603496	Lower Quality Replicate,Mapping rate lt .20
GTEX-Q2AH-0005-SM-2I3FI	SRR603566	Poor D-statistic,Lower Quality Replicate,Mapping rate lt .20
GTEX-QEG5-1126-SM-2I5GH	SRR603620	Lower Quality Replicate,Mapping rate lt .20
GTEX-OHPN-0011-R1A-SM-2I5GB	SRR603658	Poor D-statistic
GTEX-NL4W-0006-SM-2I3GH	SRR603890	Poor D-statistic
GTEX-P44G-0826-SM-2I5ES	SRR603968	Clinical Exclusion,Poor D-statistic
GTEX-OHPL-2626-SM-2HMJA	SRR604342	Poor D-statistic
GTEX-OXRO-0326-SM-2I5EE	SRR604677	Lower Quality Replicate
K-562-SM-2HMJ2	SRR607190	Poor D-statistic,K-562 Control
GTEX-PWCY-0526-SM-2I3ER	SRR607252	Lower Quality Replicate
GTEX-PLZ6-0426-SM-2I5FG	SRR607279	Lower Quality Replicate
GTEX-NPJ7-0011-R5a-SM-2I5GY	SRR607406	Poor D-statistic,Lower Quality Replicate
GTEX-OXRP-0326-SM-2I5ET	SRR607705	Lower Quality Replicate
GTEX-N7MS-0011-R3a-SM-2HMKD	SRR607775	Poor D-statistic,Lower Quality Replicate,Mapping rate lt .20
GTEX-POMQ-2226-SM-2I5FK	SRR607807	Poor D-statistic
GTEX-P4PP-0326-SM-2HML9	SRR607970	Lower Quality Replicate,Mapping rate lt .20
GTEX-P4PQ-2626-SM-2HMKM	SRR608064	Poor D-statistic,Lower Quality Replicate,Mapping rate lt .20
GTEX-OHPM-2626-SM-2HMJL	SRR608120	Lower Quality Replicate
GTEX-PLZ6-0006-SM-2I5FQ	SRR608392	Lower Quality Replicate
GTEX-OHPL-0326-SM-2HMKS	SRR608480	Lower Quality Replicate,Mapping rate lt .20
GTEX-OHPN-2526-SM-2I5H3	SRR608662	Poor D-statistic
GTEX-QVJO-0326-SM-2S1R1	SRR612203	Poor D-statistic,Mapping rate lt .20
GTEX-P78B-1626-SM-2S1O1	SRR612215	Poor D-statistic,Lower Quality Replicate
GTEX-QVJO-1726-SM-2S1R3	SRR612251	Poor D-statistic,Mapping rate lt .20
GTEX-OHPN-0011-R9A-SM-2YUMN	SRR612311	Lower Quality Replicate
GTEX-P4QT-1826-SM-2S1NJ	SRR612383	Poor D-statistic
GTEX-P4QR-0326-SM-2S1NU	SRR612503	Poor D-statistic,Lower Quality Replicate,Mapping rate lt .20
GTEX-RU72-0011-R10A-SM-2TF6D	SRR612563	Poor D-statistic,rRNA rate gt 0.30,Intergenic rate gt 0.30
GTEX-N7MT-1126-SM-2YUNQ	SRR612575	Poor D-statistic,Lower Quality Replicate,Mapping rate lt .20,Mapped reads lt 10M
K-562-SM-2S1OR	SRR612587	Poor D-statistic,K-562 Control,Mapping rate lt .20
GTEX-QXCU-0826-SM-2TC6F	SRR612719	Poor D-statistic,Mapping rate lt .20,Mapped reads lt 10M,Mismatch rate gt 0.008
GTEX-RVPV-1726-SM-2TF5W	SRR612791	Poor D-statistic,Lower Quality Replicate
GTEX-QVJO-0226-SM-2S1R2	SRR612815	Poor D-statistic,Mapped reads lt 10M
GTEX-QCQG-1926-SM-2S1PI	SRR612851	Lower Quality Replicate
GTEX-PX3G-0226-SM-2S1OU	SRR612863	Lower Quality Replicate
GTEX-RTLS-0626-SM-2TF6G	SRR613018	Poor D-statistic,Lower Quality Replicate,Mapping rate lt .20,Mapped reads lt 10M
GTEX-RNOR-0011-R5A-SM-2TF4J	SRR613090	Poor D-statistic
GTEX-RVPU-0011-R8A-SM-2TF74	SRR613114	Poor D-statistic,Lower Quality Replicate
K-562-SM-2S1RI	SRR613162	Poor D-statistic,K-562 Control
GTEX-OXRO-2026-SM-2YUMZ	SRR613186	Poor D-statistic
K-562-SM-2S1Q5	SRR613294	Poor D-statistic,K-562 Control
GTEX-PX3G-1826-SM-2S1PK	SRR613318	Poor D-statistic
GTEX-RNOR-0011-R1A-SM-2TF5D	SRR613474	Poor D-statistic,Lower Quality Replicate,Mapping rate lt .20
GTEX-OXRK-0526-SM-2YUMW	SRR613522	Lower Quality Replicate
GTEX-Q2AH-1726-SM-2S1OT	SRR613533	Lower Quality Replicate
GTEX-PLZ5-0006-SM-2S1NZ	SRR613603	Lower Quality Replicate
GTEX-QDVJ-2026-SM-2S1PD	SRR613615	Poor D-statistic
GTEX-OXRK-0226-SM-2YUN1	SRR613663	Lower Quality Replicate
GTEX-POMQ-2326-SM-2S1O8	SRR613675	Poor D-statistic,Lower Quality Replicate
GTEX-R55F-0005-SM-2TF4W	SRR613723	Poor D-statistic
GTEX-P4QT-1626-SM-2S1NP	SRR613879	Lower Quality Replicate
GTEX-PWN1-0006-SM-2S1NG	SRR614059	Poor D-statistic,Lower Quality Replicate,Mapping rate lt .20,Mapped reads lt 10M
GTEX-OIZG-1526-SM-2YUNG	SRR614095	Poor D-statistic,Mapping rate lt .20
GTEX-PSDG-0426-SM-2S1OF	SRR614251	Poor D-statistic,Lower Quality Replicate
GTEX-P4PP-1726-SM-2S1NS	SRR614347	Poor D-statistic
GTEX-OXRK-0326-SM-2YUMQ	SRR614395	Lower Quality Replicate
GTEX-QLQW-1526-SM-2S1QV	SRR614491	Poor D-statistic
GTEX-PLZ4-0006-SM-2S1NY	SRR614527	Lower Quality Replicate
GTEX-OXRK-0426-SM-2YUMT	SRR614623	Lower Quality Replicate
GTEX-RNOR-0011-R3A-SM-2TF5J	SRR614742	Poor D-statistic,Lower Quality Replicate,Mapping rate lt .20
GTEX-PWCY-1826-SM-2S1OK	SRR614779	Poor D-statistic,Lower Quality Replicate,Mapping rate lt .20,Mapped reads lt 10M
GTEX-QV31-1526-SM-2S1QB	SRR614791	Poor D-statistic,Mapped reads lt 10M
GTEX-PWCY-2026-SM-2S1NF	SRR614839	Poor D-statistic,Lower Quality Replicate,Mapping rate lt .20,Mapped reads lt 10M
GTEX-RUSQ-1726-SM-2TF68	SRR614852	Poor D-statistic
GTEX-OHPL-1826-SM-2YUN8	SRR614887	Poor D-statistic
GTEX-P78B-0626-SM-2S1O5	SRR614888	Poor D-statistic,Lower Quality Replicate,Mapping rate lt .20,Mapped reads lt 10M
GTEX-QVJO-0011-R7A-SM-2S1QO	SRR614924	Mapping rate lt .20,Mapped reads lt 10M
GTEX-RU72-0526-SM-2TF5Z	SRR614948	Poor D-statistic
GTEX-QMRM-0005-SM-2S1QR	SRR614972	Lower Quality Replicate
GTEX-RUSQ-0006-SM-2TF6P	SRR615117	Poor D-statistic
GTEX-R55F-0011-R5A-SM-2TF5L	SRR615141	Poor D-statistic
GTEX-R55F-1326-SM-2TF5F	SRR615213	Poor D-statistic,Lower Quality Replicate,Mapping rate lt .20,Mismatch rate gt 0.008
GTEX-PWN1-0226-SM-2S1OZ	SRR615237	Lower Quality Replicate
GTEX-N7MT-1226-SM-2TC6K	SRR615249	Lower Quality Replicate
GTEX-PLZ6-1426-SM-2S1OQ	SRR615395	Lower Quality Replicate
K-562-SM-2TF4E	SRR615455	Poor D-statistic,K-562 Control
GTEX-R55G-0726-SM-2TC6J	SRR615491	Poor D-statistic
GTEX-RVPU-0011-R4A-SM-2TF6X	SRR615515	Poor D-statistic,Lower Quality Replicate
GTEX-RUSQ-1526-SM-2TF62	SRR615527	Poor D-statistic
GTEX-PLZ4-0126-SM-2S1OG	SRR615587	Poor D-statistic,Lower Quality Replicate,Mapping rate lt .20
GTEX-QCQG-0006-SM-2S1OW	SRR615647	Lower Quality Replicate
GTEX-RNOR-0726-SM-2TF5I	SRR615695	Poor D-statistic
GTEX-RU72-0011-R11A-SM-2TF6J	SRR615766	Lower Quality Replicate
GTEX-PLZ4-0226-SM-2S1NW	SRR615778	Lower Quality Replicate
K-562-SM-2TC5E	SRR615826	Poor D-statistic,K-562 Control
GTEX-QESD-1726-SM-2S1R7	SRR615850	Poor D-statistic
GTEX-QVJO-1926-SM-2S1QZ	SRR615898	Poor D-statistic
GTEX-P4PP-0226-SM-2S1NN	SRR615946	Poor D-statistic,Lower Quality Replicate,Mapping rate lt .20,Mapped reads lt 10M
GTEX-RN64-0826-SM-2TC62	SRR615970	Mismatch rate gt 0.008
GTEX-QEG5-0526-SM-2S1PC	SRR615994	Poor D-statistic,Lower Quality Replicate,Mapped reads lt 10M
GTEX-O5YV-0526-SM-2D7VZ	SRR627459	Lower Quality Replicate
GTEX-SIU8-0926-SM-2XCDO	SRR654814	Poor D-statistic,Lower Quality Replicate
GTEX-R55D-1026-SM-3GAEQ	SRR654850	Poor D-statistic
GTEX-UTHO-1226-SM-3GAEE	SRR654940	Poor D-statistic
GTEX-Q2AG-0005-SM-33HBX	SRR655088	Lower Quality Replicate
GTEX-RVPU-0011-R2A-SM-2XCAG	SRR655590	Poor D-statistic
GTEX-R53T-1626-SM-3GAEW	SRR655637	Poor D-statistic
GTEX-WFG8-2526-SM-3GILR	SRR655911	Poor D-statistic
GTEX-P44H-0011-R6A-SM-2XCF3	SRR655923	Poor D-statistic
GTEX-TMKS-0426-SM-3DB85	SRR656349	Poor D-statistic,XXY Sex Check
GTEX-S32W-2526-SM-2XCB8	SRR656385	Poor D-statistic
GTEX-U8XE-2026-SM-3DB8S	SRR656457	Poor D-statistic
GTEX-QDT8-0526-SM-32PL5	SRR657054	Lower Quality Replicate
GTEX-UTHO-0011-R10A-SM-3GIJQ	SRR657127	Poor D-statistic
GTEX-SIU7-1726-SM-2XCDZ	SRR657516	Poor D-statistic
GTEX-Q2AI-1626-SM-2S1P9	SRR657540	Poor D-statistic
GTEX-R3RS-1026-SM-3GADF	SRR657611	Poor D-statistic
GTEX-QDT8-0011-R5A-SM-32PKN	SRR657731	Poor D-statistic
GTEX-SIU7-1126-SM-2XCDW	SRR657821	Poor D-statistic
GTEX-RUSQ-0003-SM-2XCEB	SRR657869	Poor D-statistic
GTEX-V955-2026-SM-3GAFA	SRR658105	Poor D-statistic
GTEX-VJYA-1526-SM-3GIJV	SRR658152	Poor D-statistic
GTEX-SJXC-0326-SM-2XCFI	SRR658164	Poor D-statistic
GTEX-PVOW-0426-SM-2XCF8	SRR658283	Lower Quality Replicate
GTEX-S33H-0526-SM-2XCBK	SRR658331	Poor D-statistic,Lower Quality Replicate,Mapping rate lt .20
GTEX-TMMY-0926-SM-33HBG	SRR658385	Lower Quality Replicate
GTEX-WFG7-2026-SM-3GIL7	SRR658837	Poor D-statistic,Lower Quality Replicate
GTEX-QVUS-0226-SM-3GIJY	SRR658989	Poor D-statistic
GTEX-PX3G-0006-SM-33HBQ	SRR659061	Lower Quality Replicate
GTEX-TMMY-0826-SM-33HB9	SRR659133	Poor D-statistic
GTEX-UPK5-0426-SM-3GAEK	SRR659157	Poor D-statistic
GTEX-QDT8-0006-SM-32PL3	SRR659169	Poor D-statistic,Lower Quality Replicate
GTEX-S32W-0006-SM-2XCAK	SRR659295	Poor D-statistic
GTEX-SN8G-0426-SM-32PLF	SRR659367	Poor D-statistic
GTEX-RVPU-0011-R1A-SM-2XCAI	SRR659472	Poor D-statistic
GTEX-P44H-0626-SM-2XCF2	SRR659533	Poor D-statistic
GTEX-S33H-2226-SM-2XCB7	SRR659708	Poor D-statistic,Lower Quality Replicate
GTEX-WFG8-2126-SM-3GIKQ	SRR659756	Poor D-statistic
GTEX-QV44-0006-SM-2S1Q7	SRR659768	Poor D-statistic
K-562-SM-2XCE8	SRR659995	Poor D-statistic,K-562 Control
GTEX-QDT8-0011-R8A-SM-32PKE	SRR660007	Poor D-statistic
GTEX-SNMC-0006-SM-2XCFE	SRR660042	Poor D-statistic
GTEX-S4UY-0626-SM-3K2AO	SRR660236	Poor D-statistic
GTEX-VJYA-1926-SM-3GIJJ	SRR660260	Poor D-statistic
GTEX-RU1J-0003-SM-3K2A8	SRR660295	Poor D-statistic
GTEX-TSE9-0326-SM-3DB82	SRR660306	Poor D-statistic
GTEX-T2YK-0526-SM-32QPJ	SRR660354	Poor D-statistic
K-562-SM-2XCFL	SRR660390	Poor D-statistic,K-562 Control
GTEX-S341-1726-SM-3K2AK	SRR660426	Poor D-statistic
GTEX-Q2AH-1626-SM-3GAF8	SRR660522	Poor D-statistic
GTEX-QMR6-0005-SM-32PKY	SRR660579	Poor D-statistic
GTEX-U8T8-0226-SM-3DB97	SRR660764	Poor D-statistic,rRNA rate gt 0.30,Intergenic rate gt 0.30
GTEX-P44H-0011-R3A-SM-2XCEQ	SRR661133	Poor D-statistic,Lower Quality Replicate,Mapping rate lt .20
GTEX-S7SF-0226-SM-3K2BI	SRR661409	Lower Quality Replicate
GTEX-RVPU-0011-R6A-SM-2XCAC	SRR661433	Poor D-statistic
GTEX-S341-0226-SM-2XCAX	SRR661493	Lower Quality Replicate
GTEX-UJMC-2026-SM-3GADR	SRR661505	Poor D-statistic
GTEX-TMMY-0326-SM-33HBF	SRR661651	Poor D-statistic,rRNA rate gt 0.30,Intergenic rate gt 0.30
GTEX-UTHO-1826-SM-3GAFE	SRR661699	Poor D-statistic
GTEX-QDVN-2126-SM-33HBS	SRR661735	Poor D-statistic
GTEX-UPK5-0326-SM-3GAF3	SRR661806	Lower Quality Replicate
GTEX-POMQ-0006-SM-33HBY	SRR661854	Lower Quality Replicate
GTEX-W5WG-2326-SM-3GIJH	SRR661949	Poor D-statistic
GTEX-UTHO-0426-SM-3GAED	SRR662103	Poor D-statistic,Lower Quality Replicate
GTEX-S32W-0004-SM-2XCE9	SRR662174	Poor D-statistic
GTEX-U412-0006-SM-3DB8J	SRR662211	Poor D-statistic
K-562-SM-3K2BF	SRR662221	Poor D-statistic,K-562 Control
GTEX-S4P3-0006-SM-3K2AW	SRR662282	Poor D-statistic
GTEX-RVPU-0011-R11A-SM-2XCAF	SRR662342	Poor D-statistic
GTEX-TMKS-0005-SM-33OV7	SRR662594	Lower Quality Replicate,XXY Sex Check
K-562-SM-3GIKB	SRR662775	Poor D-statistic,K-562 Control
GTEX-SE5C-1826-SM-2XCE4	SRR662906	Poor D-statistic
GTEX-Q2AI-1526-SM-3GIJ3	SRR662918	Poor D-statistic
GTEX-WFG8-2326-SM-3GILF	SRR663197	Lower Quality Replicate
GTEX-WEY5-2026-SM-3GILE	SRR663356	Poor D-statistic,Lower Quality Replicate
GTEX-U8XE-0526-SM-3DB8R	SRR664072	Poor D-statistic
GTEX-QDT8-0011-R9A-SM-32PKH	SRR665241	Lower Quality Replicate,Mapping rate lt .20
GTEX-P44G-2326-SM-2XCCZ	SRR665274	Clinical Exclusion,Poor D-statistic
GTEX-VUSG-0326-SM-3GIJ7	SRR665405	Poor D-statistic
GTEX-P44H-2626-SM-2XCET	SRR665442	Poor D-statistic
GTEX-VJYA-1326-SM-3GIJC	SRR665634	Poor D-statistic
GTEX-WFG7-0326-SM-3GILI	SRR665646	Lower Quality Replicate
GTEX-P4PQ-2126-SM-3NMCV	SRR807517	Poor D-statistic
GTEX-VUSH-0526-SM-3NB2J	SRR807567	Poor D-statistic
GTEX-WVLH-0011-R2A-SM-3MJFJ	SRR807591	Poor D-statistic
GTEX-WI4N-0005-SM-3LK7E	SRR807637	Poor D-statistic
GTEX-P44G-1126-SM-3NM9D	SRR807995	Clinical Exclusion,Poor D-statistic
GTEX-VUSH-0326-SM-3NB2I	SRR808244	Poor D-statistic
GTEX-WHPG-2426-SM-3NMBQ	SRR809643	Poor D-statistic
GTEX-SE5C-0626-SM-3P5ZJ	SRR810507	Lower Quality Replicate
GTEX-X4EP-0011-R1A-SM-3P624	SRR810571	Poor D-statistic
GTEX-WZTO-1226-SM-3NMAZ	SRR810619	Poor D-statistic
GTEX-NPJ8-1226-SM-3MJHM	SRR810899	Poor D-statistic
GTEX-PLZ6-1226-SM-3P5ZS	SRR812912	Poor D-statistic
GTEX-WHSB-0326-SM-3LK6K	SRR813043	Lower Quality Replicate
GTEX-P4QS-2026-SM-3NMCG	SRR813108	Poor D-statistic
GTEX-N7MT-1626-SM-3LK71	SRR813208	Poor D-statistic
GTEX-WI4N-0926-SM-3LK7K	SRR813848	Poor D-statistic
GTEX-N7MS-1126-SM-3LK5E	SRR814447	Poor D-statistic
GTEX-OHPL-0626-SM-3MJGJ	SRR814657	Poor D-statistic
GTEX-OXRO-1726-SM-3LK6C	SRR815825	Poor D-statistic
GTEX-WWYW-3226-SM-3NB3B	SRR816517	Poor D-statistic
GTEX-X4EP-0011-R3A-SM-3P626	SRR817658	Poor D-statistic
GTEX-OHPN-0011-R8A-SM-33HBT	SRR818270	Poor D-statistic
GTEX-X4EP-0011-R4B-SM-3P627	SRR819346	Poor D-statistic
GTEX-OHPK-2026-SM-3MJH7	SRR820026	Poor D-statistic
GTEX-X4EP-0011-R5A-SM-3P628	SRR820133	Poor D-statistic
GTEX-X4EP-0011-R6A-SM-3P629	SRR820209	Poor D-statistic
GTEX-OHPL-0726-SM-3TW8U	SRR820280	Poor D-statistic
GTEX-X4EP-0011-R2B-SM-3P625	SRR821019	Poor D-statistic
GTEX-O5YT-0826-SM-3TW8N	SRR821043	Poor D-statistic
GTEX-WWYW-1126-SM-3NB2Q	SRR821183	Poor D-statistic
GTEX-N7MS-1225-SM-3LK5G	SRR821282	Poor D-statistic
GTEX-OHPN-0011-R10A-SM-33HBU	SRR821602	Poor D-statistic
GTEX-U8XE-1526-SM-4E3HT	SRR1069141	Poor D-statistic
GTEX-VJYA-2126-SM-4KL1O	SRR1069943	Poor D-statistic
GTEX-WFON-1526-SM-4LVMP	SRR1070133	Poor D-statistic
GTEX-U3ZN-1126-SM-4DXUL	SRR1071359	Poor D-statistic
GTEX-SIU7-1526-SM-4BRWQ	SRR1071379	Poor D-statistic
GTEX-X8HC-1426-SM-46MWC	SRR1072480	Poor D-statistic
GTEX-X585-1426-SM-4E3JO	SRR1074214	Poor D-statistic
GTEX-RWSA-1726-SM-47JX7	SRR1074474	Poor D-statistic
GTEX-NPJ8-0626-SM-48TBO	SRR1074526	Poor D-statistic
GTEX-QDT8-0526-SM-4LMJR	SRR1074670	Lower Quality Replicate
GTEX-QXCU-1126-SM-48FE5	SRR1075555	Poor D-statistic
GTEX-XPVG-1726-SM-4B65W	SRR1076465	Poor D-statistic
GTEX-XV7Q-0005-SM-4BRWI	SRR1076511	Poor D-statistic
GTEX-XK95-0005-SM-4AT4S	SRR1076847	Poor D-statistic
GTEX-SJXC-1126-SM-4DM6Y	SRR1077090	Poor D-statistic
GTEX-SSA3-0326-SM-47JWY	SRR1077288	Lower Quality Replicate
GTEX-X4XY-0011-R10B-SM-46MWS	SRR1077405	Poor D-statistic
GTEX-X8HC-0008-SM-46MU6	SRR1077826	Poor D-statistic
GTEX-XV7Q-1526-SM-4BRWB	SRR1079213	Poor D-statistic
GTEX-RU72-2626-SM-4GIE1	SRR1079408	Lower Quality Replicate
GTEX-QV31-0426-SM-447C4	SRR1079543	Poor D-statistic
GTEX-QV31-0526-SM-447C3	SRR1080246	Poor D-statistic
GTEX-SE5C-0626-SM-4IHLJ	SRR1080415	Lower Quality Replicate
GTEX-T2YK-1326-SM-4DM6S	SRR1080648	Poor D-statistic
GTEX-POYW-1326-SM-48TCG	SRR1081044	Poor D-statistic
GTEX-S4Z8-2126-SM-4AD5H	SRR1081449	Poor D-statistic
GTEX-XYKS-2926-SM-4E3IA	SRR1081589	Poor D-statistic
GTEX-N7MT-0226-SM-48TC3	SRR1081639	Poor D-statistic
GTEX-S4UY-1026-SM-4AD53	SRR1082352	Poor D-statistic
GTEX-SUCS-1126-SM-4DM61	SRR1082496	Poor D-statistic
GTEX-PLZ5-0826-SM-4E3JR	SRR1083237	Lower Quality Replicate
GTEX-Q2AG-1326-SM-43V8K	SRR1083530	Poor D-statistic
GTEX-XMD1-0006-SM-4AT4Q	SRR1083657	Poor D-statistic
GTEX-W5WG-2026-SM-4LMIB	SRR1084505	Poor D-statistic
GTEX-QESD-0226-SM-447BH	SRR1085187	Poor D-statistic
GTEX-QEG4-0008-SM-48TYZ	SRR1085334	Poor D-statistic
GTEX-XMD1-2926-SM-4AT42	SRR1085975	Poor D-statistic
GTEX-OOBK-3025-SM-48TBP	SRR1086140	Poor D-statistic
GTEX-U3ZH-0926-SM-4DXU4	SRR1086869	Poor D-statistic
GTEX-S4Q7-0126-SM-4AD5P	SRR1086935	Poor D-statistic
GTEX-OXRP-0126-SM-48TDI	SRR1088316	Lower Quality Replicate
GTEX-R55F-0008-SM-48FE6	SRR1089054	Poor D-statistic
GTEX-PWOO-1726-SM-48TDC	SRR1089134	Poor D-statistic
K-562-SM-48FEU	SRR1089877	Poor D-statistic,K-562 Control
GTEX-QDVN-1926-SM-48TZ8	SRR1090650	Poor D-statistic
GTEX-XYKS-1126-SM-4BRWP	SRR1090746	Poor D-statistic
GTEX-OXRP-0226-SM-48TDH	SRR1091380	Lower Quality Replicate
GTEX-R55C-0226-SM-48FEO	SRR1091476	Poor D-statistic
GTEX-X5EB-1126-SM-46MVV	SRR1091524	Poor D-statistic
GTEX-N7MS-0225-SM-4E3HO	SRR1092087	Poor D-statistic
GTEX-XLM4-0011-R8A-SM-4AT44	SRR1092706	Poor D-statistic
GTEX-XLM4-0011-R11A-SM-4AT46	SRR1092797	Poor D-statistic
GTEX-X8HC-1026-SM-46MWH	SRR1092889	Poor D-statistic
GTEX-Q2AI-0008-SM-48U2H	SRR1092961	Poor D-statistic
GTEX-RVPV-0926-SM-47JXU	SRR1092985	Poor D-statistic
GTEX-S4Z8-0826-SM-4AD4J	SRR1093007	Poor D-statistic
GTEX-QXCU-1326-SM-48FE2	SRR1093625	Poor D-statistic
GTEX-X5EB-0826-SM-46MVS	SRR1093649	Poor D-statistic
GTEX-T5JC-1226-SM-4DM7C	SRR1093697	Poor D-statistic
GTEX-XXEK-1126-SM-4BRUX	SRR1093861	Poor D-statistic
GTEX-VJYA-1826-SM-4KL1W	SRR1094241	Poor D-statistic
GTEX-XAJ8-0008-SM-46MU7	SRR1094482	Poor D-statistic
GTEX-XYKS-0826-SM-4BRVF	SRR1095937	Poor D-statistic
GTEX-QDVN-0006-SM-48U1R	SRR1096571	Poor D-statistic
GTEX-R55G-1526-SM-48FER	SRR1097148	Poor D-statistic
GTEX-XXEK-1226-SM-4BRUY	SRR1097344	Poor D-statistic
GTEX-U4B1-1826-SM-4DXSU	SRR1097837	Poor D-statistic
GTEX-PWCY-1426-SM-48TCT	SRR1097929	Poor D-statistic
GTEX-X4XX-0011-R7A-SM-46MWR	SRR1098336	Poor D-statistic
GTEX-XGQ4-2326-SM-4AT53	SRR1098474	Poor D-statistic
GTEX-WEY5-0626-SM-4LMIA	SRR1098807	Poor D-statistic
GTEX-T2YK-0226-SM-4DM5O	SRR1098879	Poor D-statistic
GTEX-POMQ-0008-SM-48TE7	SRR1101226	Poor D-statistic
GTEX-X62O-0226-SM-4E3JB	SRR1101643	Poor D-statistic
GTEX-X5EB-1526-SM-4E3JC	SRR1102344	Poor D-statistic
GTEX-PWOO-0826-SM-48TCL	SRR1102899	Poor D-statistic
GTEX-X62O-0008-SM-46MU5	SRR1103024	Poor D-statistic
GTEX-X4XY-0011-R6B-SM-46MVB	SRR1103048	Poor D-statistic
GTEX-1192W-0826-SM-5EGHE	SRR1309314	Poor D-statistic
GTEX-11DXY-0226-SM-5H123	SRR1309425	Poor D-statistic
GTEX-11I78-1626-SM-5A5M2	SRR1309833	Poor D-statistic
GTEX-111FC-2526-SM-5GZXU	SRR1310053	Poor D-statistic
GTEX-11TT1-1726-SM-5EQLJ	SRR1310433	Poor D-statistic
GTEX-11GS4-2826-SM-5HL56	SRR1312464	Poor D-statistic
GTEX-11ZU8-0005-SM-5PNU5	SRR1313514	Poor D-statistic
GTEX-12BJ1-1326-SM-5BC5P	SRR1314788	Poor D-statistic
GTEX-145MI-0011-R3b-SM-5PNWK	SRR1315019	Poor D-statistic
GTEX-13JVG-2026-SM-5KM1N	SRR1315291	Poor D-statistic
GTEX-13FTZ-0326-SM-5J1O1	SRR1315393	Poor D-statistic
GTEX-11EMC-2526-SM-5PNVU	SRR1315412	Poor D-statistic
GTEX-13N11-1226-SM-5KM4D	SRR1315780	Poor D-statistic
GTEX-117YX-2026-SM-5GIEF	SRR1315821	Poor D-statistic
GTEX-11EI6-1526-SM-5P9GL	SRR1316055	Poor D-statistic
GTEX-13O1R-2026-SM-5KM3N	SRR1316096	Poor D-statistic
GTEX-132AR-0426-SM-5IFH8	SRR1317554	Poor D-statistic
GTEX-WY7C-1326-SM-4ONCX	SRR1317939	Mismatch rate gt 0.008
GTEX-13CZV-0006-SM-5P9IN	SRR1318005	Poor D-statistic
GTEX-11WQK-0326-SM-5EQL1	SRR1318920	Poor D-statistic
GTEX-11EQ8-0126-SM-5EQ54	SRR1319221	Poor D-statistic
GTEX-QEG5-1126-SM-5SI88	SRR1319560	Lower Quality Replicate
GTEX-14E6C-0926-SM-5S2V9	SRR1319584	Poor D-statistic
GTEX-13G51-0826-SM-5K7VB	SRR1319608	Poor D-statistic
GTEX-PWCY-2026-SM-5QGQ9	SRR1319710	Lower Quality Replicate
GTEX-145MI-0011-R4b-SM-5PNZH	SRR1319816	Poor D-statistic
GTEX-WYJK-2326-SM-4ONDN	SRR1320445	Poor D-statistic,Mismatch rate gt 0.008
GTEX-WH7G-1426-SM-4LVMU	SRR1320490	Poor D-statistic
GTEX-131XF-2026-SM-5DUWG	SRR1321204	Poor D-statistic
GTEX-PVOW-0426-SM-5N9DW	SRR1321225	Lower Quality Replicate
GTEX-OHPL-0526-SM-4M1XS	SRR1321351	Lower Quality Replicate,Mismatch rate gt 0.008
GTEX-U3ZH-0326-SM-4WWDX	SRR1321505	Lower Quality Replicate
GTEX-WYVS-1226-SM-4ONCL	SRR1321720	Mismatch rate gt 0.008
GTEX-1269C-1026-SM-5N9EY	SRR1321744	Poor D-statistic
GTEX-PVOW-1026-SM-5NQ7M	SRR1322373	Lower Quality Replicate
GTEX-OOBJ-0326-SM-5SI84	SRR1322395	Lower Quality Replicate
GTEX-N7MS-0011-R3a-SM-5SI8H	SRR1323106	Lower Quality Replicate
GTEX-12WSN-1426-SM-5GCO6	SRR1323289	Poor D-statistic
GTEX-146FQ-1226-SM-5QGQ4	SRR1323470	Poor D-statistic
GTEX-111FC-3026-SM-5GZYJ	SRR1324184	Poor D-statistic
GTEX-WHSB-0226-SM-4M1XE	SRR1324269	Mismatch rate gt 0.008
GTEX-YFC4-0126-101855-SM-5CVLZ	SRR1325138	Lower Quality Replicate
GTEX-146FQ-0526-SM-5LU9I	SRR1325871	Poor D-statistic
GTEX-11GSO-2826-SM-5HL6Q	SRR1325944	Poor D-statistic
GTEX-ZAB5-1926-SM-5HL7O	SRR1326427	Poor D-statistic
GTEX-ZDTT-0006-SM-4WKFP	SRR1326536	Mismatch rate gt 0.008
GTEX-U412-0326-SM-5BC7E	SRR1326624	Lower Quality Replicate
GTEX-ZAB5-1526-SM-5HL9P	SRR1326845	Poor D-statistic
GTEX-WXYG-0126-SM-4OND7	SRR1327279	Mismatch rate gt 0.008
GTEX-YEC3-0626-SM-4YCFE	SRR1327303	Lower Quality Replicate
GTEX-Y5V5-2726-SM-4VDS2	SRR1327430	Poor D-statistic
GTEX-WHSE-1526-SM-4M1XH	SRR1327654	Mismatch rate gt 0.008
GTEX-1399T-0426-SM-5PNVJ	SRR1327680	Poor D-statistic
GTEX-ZDTT-0004-SM-4WKG3	SRR1327951	Mismatch rate gt 0.008
GTEX-WYJK-0926-SM-4ONCF	SRR1328073	Mismatch rate gt 0.008
GTEX-13OW8-0526-SM-5KM24	SRR1328125	Poor D-statistic
GTEX-ZTX8-0326-SM-59HLA	SRR1328506	Poor D-statistic
GTEX-UPK5-0726-SM-4IHL7	SRR1328666	Poor D-statistic,Mapped reads lt 10M,Mismatch rate gt 0.008
GTEX-WHWD-0003-SM-4M1ZS	SRR1328869	Mismatch rate gt 0.008
GTEX-WHSE-0526-SM-4SOJ6	SRR1329003	Lower Quality Replicate
GTEX-ZF28-0011-R6a-SM-4WKHI	SRR1329885	Poor D-statistic,Mismatch rate gt 0.008
GTEX-11OC5-0626-SM-5HL6M	SRR1330041	Poor D-statistic
GTEX-Y5V6-1626-SM-4VDT2	SRR1330176	Poor D-statistic
GTEX-WYVS-1426-SM-4ONCV	SRR1330450	Mismatch rate gt 0.008
GTEX-WY7C-1726-SM-4ONCC	SRR1330609	Mismatch rate gt 0.008
GTEX-ZEX8-2426-SM-4WKG4	SRR1331359	Mismatch rate gt 0.008
GTEX-ZYY3-1926-SM-5GZXS	SRR1331383	Poor D-statistic
GTEX-11TT1-2326-SM-5GU6N	SRR1331639	Poor D-statistic
GTEX-ZTPG-0726-SM-5DUXP	SRR1332187	Poor D-statistic
GTEX-YEC3-0526-SM-4YCF2	SRR1332208	Lower Quality Replicate
GTEX-ZF29-0926-SM-4WKFZ	SRR1332670	Mismatch rate gt 0.008
GTEX-14BMU-0226-SM-5S2QA	SRR1332713	Poor D-statistic
GTEX-ZDXO-1426-SM-4WKHG	SRR1332904	Mismatch rate gt 0.008
GTEX-ZF2S-0126-SM-4WKFO	SRR1333263	Mismatch rate gt 0.008
GTEX-11OC5-0004-SM-5S2O6	SRR1333330	Poor D-statistic
GTEX-WHSE-1626-SM-4M1XL	SRR1333633	Mismatch rate gt 0.008
GTEX-1314G-0826-SM-5BC6L	SRR1333891	Poor D-statistic
GTEX-13FHP-1526-SM-5IJGE	SRR1333913	Poor D-statistic
GTEX-ZTTD-1726-SM-57WEL	SRR1334200	Poor D-statistic
GTEX-U3ZH-0326-SM-51MS7	SRR1334338	Lower Quality Replicate
GTEX-111FC-1326-SM-5N9D9	SRR1334461	Poor D-statistic
GTEX-YEC3-2526-SM-5CVLS	SRR1334982	Lower Quality Replicate
GTEX-OHPN-0011-R10A-SM-5S2U3	SRR1335446	Poor D-statistic,Lower Quality Replicate
GTEX-13NZ8-3026-SM-5L3D4	SRR1335856	Poor D-statistic
GTEX-11UD2-1626-SM-5EQM3	SRR1336314	Poor D-statistic
GTEX-ZF28-0726-SM-4WKFU	SRR1336636	Mismatch rate gt 0.008
GTEX-14753-0011-R6b-SM-5S2UD	SRR1336887	Poor D-statistic
GTEX-11UD2-2826-SM-5GU6X	SRR1337052	Poor D-statistic
GTEX-ZYVF-2126-SM-5E44N	SRR1338789	Poor D-statistic
GTEX-ZEX8-0005-SM-4WKGE	SRR1338964	Mismatch rate gt 0.008
GTEX-ZAB5-2726-SM-5J2NH	SRR1339722	Poor D-statistic
GTEX-WY7C-1026-SM-4OND3	SRR1339788	Mismatch rate gt 0.008
GTEX-WHPG-0008-SM-4M1ZQ	SRR1340069	Mismatch rate gt 0.008
GTEX-11GSP-3026-SM-5N9CE	SRR1340241	Poor D-statistic
GTEX-ZEX8-2026-SM-4WKF3	SRR1340345	Mismatch rate gt 0.008
GTEX-ZF3C-1226-SM-4WWCB	SRR1340441	Poor D-statistic
GTEX-ZDTT-1326-SM-4WKFH	SRR1340574	Mismatch rate gt 0.008
GTEX-1339X-1226-SM-5PNVO	SRR1340828	Poor D-statistic
GTEX-1269C-0011-R4b-SM-5P9ES	SRR1341057	Poor D-statistic
GTEX-ZYVF-0726-SM-5GICF	SRR1341188	Poor D-statistic
GTEX-WYJK-2226-SM-4ONDJ	SRR1341209	Mismatch rate gt 0.008
GTEX-ZDXO-2126-SM-4WKFI	SRR1341277	Mismatch rate gt 0.008
GTEX-X261-1426-SM-4PQZ1	SRR1341456	Poor D-statistic
GTEX-ZZPU-0226-SM-5N9BV	SRR1342829	Poor D-statistic
GTEX-12ZZW-0126-SM-5DUVB	SRR1343898	Poor D-statistic
GTEX-WHSE-1426-SM-4M1XG	SRR1344034	Mismatch rate gt 0.008
GTEX-14A5H-1826-SM-5NQAB	SRR1344229	Poor D-statistic
GTEX-13W3W-2026-SM-5K7UL	SRR1344364	Poor D-statistic
GTEX-YEC3-2126-SM-5CVLR	SRR1345284	Lower Quality Replicate
GTEX-ZY6K-1726-SM-5GZX8	SRR1345347	Poor D-statistic
GTEX-WYBS-0005-SM-4ONDR	SRR1345412	Mismatch rate gt 0.008
GTEX-WYBS-0008-SM-4ONDX	SRR1345499	Mismatch rate gt 0.008
GTEX-1269C-0926-SM-5FQSR	SRR1345563	Poor D-statistic
GTEX-OXRL-0326-SM-4MVNY	SRR1345736	Lower Quality Replicate
GTEX-RU1J-0626-SM-4WAWY	SRR1345953	Mismatch rate gt 0.008
GTEX-X4EP-1626-SM-4QAS6	SRR1346710	Poor D-statistic
GTEX-13OVJ-1026-SM-5IFGI	SRR1346734	Poor D-statistic
GTEX-139T8-0726-SM-5L3D2	SRR1347481	Poor D-statistic
GTEX-1399S-1226-SM-5J1O6	SRR1347707	Poor D-statistic
GTEX-ZP4G-1026-SM-4YCE1	SRR1348746	Poor D-statistic
GTEX-ZF2S-1826-SM-4WKFF	SRR1348792	Mismatch rate gt 0.008
GTEX-WHSB-0626-SM-4M1XP	SRR1348885	Poor D-statistic,Mismatch rate gt 0.008
GTEX-ZF29-2126-SM-4WWB8	SRR1348929	Poor D-statistic
GTEX-WHSB-0008-SM-4M1ZP	SRR1349250	Mismatch rate gt 0.008
GTEX-WXYG-1026-SM-4ONCD	SRR1349608	Mismatch rate gt 0.008
GTEX-ZDTT-0426-SM-4WKFL	SRR1349978	Mismatch rate gt 0.008
GTEX-13PVQ-1526-SM-5IFEQ	SRR1350002	Poor D-statistic
GTEX-139UC-0011-R11a-SM-5KM3J	SRR1350220	Poor D-statistic,XXY Sex Check
GTEX-WYVS-1926-SM-4SOIC	SRR1350239	Lower Quality Replicate
GTEX-U412-0326-SM-5DUVP	SRR1350435	Lower Quality Replicate
GTEX-YECK-0008-SM-4W1ZG	SRR1350912	Poor D-statistic
GTEX-WHPG-2126-SM-4M1ZM	SRR1351454	Mismatch rate gt 0.008
GTEX-113IC-0126-SM-5HL6T	SRR1351501	Poor D-statistic
GTEX-ZEX8-0726-SM-4WKH8	SRR1351557	Mismatch rate gt 0.008
GTEX-117YW-0426-SM-5GZZZ	SRR1351583	Poor D-statistic
GTEX-ZUA1-0826-SM-4YCDL	SRR1351931	Poor D-statistic
GTEX-WYVS-0004-SM-4ONDT	SRR1352021	Mismatch rate gt 0.008
GTEX-13QJ3-0226-SM-5S2PU	SRR1352069	Poor D-statistic
GTEX-WHSE-0008-SM-4M1ZO	SRR1352187	Mismatch rate gt 0.008
GTEX-ZDYS-2326-SM-4WKG6	SRR1352322	Mismatch rate gt 0.008
K-562-SM-48U2C	SRR1352481	Poor D-statistic,K-562 Control
GTEX-14E7W-1226-SM-5RQIU	SRR1352619	Poor D-statistic
GTEX-ZQG8-0008-SM-4YCE7	SRR1352659	Lower Quality Replicate
GTEX-Y9LG-2326-SM-4VDS1	SRR1352870	Poor D-statistic
GTEX-11TT1-1926-SM-5PNYN	SRR1354117	Poor D-statistic
GTEX-12ZZW-1026-SM-5GCMM	SRR1355194	Poor D-statistic
GTEX-WVJS-2726-SM-4MVNU	SRR1355304	Poor D-statistic
GTEX-12BJ1-0126-SM-5LU9P	SRR1355415	Poor D-statistic
GTEX-OXRL-0326-SM-447BG	SRR1355660	Lower Quality Replicate
GTEX-WXYG-0008-SM-4ONDU	SRR1355968	Mismatch rate gt 0.008
GTEX-14E6C-0126-SM-5RQIP	SRR1356164	Poor D-statistic
GTEX-WY7C-1826-SM-4ONCE	SRR1356327	Mismatch rate gt 0.008
GTEX-13NYB-0926-SM-5IFFA	SRR1357042	Poor D-statistic
GTEX-11GSO-0626-SM-5A5LW	SRR1357344	Poor D-statistic
GTEX-ZEX8-0826-SM-4WKHK	SRR1357389	Mismatch rate gt 0.008
GTEX-WYVS-0726-SM-4ONDO	SRR1357733	Mismatch rate gt 0.008
GTEX-1192X-0005-SM-5NQC3	SRR1357781	Poor D-statistic
GTEX-148VJ-1526-SM-5Q5DU	SRR1358017	Poor D-statistic
GTEX-11UD2-1226-SM-5EQMI	SRR1358161	Poor D-statistic
GTEX-WYVS-1326-SM-4ONCQ	SRR1358367	Mismatch rate gt 0.008
GTEX-13O3Q-0326-SM-5L3FE	SRR1358482	Poor D-statistic
GTEX-RVPU-0011-R4A-SM-5SI8K	SRR1358689	Poor D-statistic
GTEX-1399S-2426-SM-5K7U3	SRR1359410	Poor D-statistic
GTEX-11TT1-2426-SM-5EQMK	SRR1359447	Poor D-statistic
GTEX-12WS9-1526-SM-5FQT4	SRR1359487	Clinical Exclusion,Poor D-statistic
GTEX-WHSB-1226-SM-4M1XR	SRR1359821	Mismatch rate gt 0.008
GTEX-YEC3-0426-SM-5IFK1	SRR1361156	Lower Quality Replicate
GTEX-139TU-0011-R5b-SM-5L3E1	SRR1361795	Poor D-statistic
GTEX-ZE9C-2126-SM-4WKGY	SRR1361814	Mismatch rate gt 0.008
GTEX-11VI4-1426-SM-5GU6O	SRR1361883	Poor D-statistic
GTEX-ZDXO-0226-SM-4WKH7	SRR1362263	Mismatch rate gt 0.008
GTEX-VJWN-1026-SM-4M1ZN	SRR1362488	Mismatch rate gt 0.008
GTEX-WYBS-2426-SM-4ONDI	SRR1362731	Mismatch rate gt 0.008
GTEX-WXYG-1326-SM-4ONCN	SRR1363718	Mismatch rate gt 0.008
GTEX-ZVZQ-0426-SM-59HLT	SRR1363858	Poor D-statistic
GTEX-1339X-2726-SM-5PNYU	SRR1363947	Poor D-statistic
GTEX-ZYFC-1626-SM-5N9EU	SRR1364056	Poor D-statistic
GTEX-14E6D-0926-SM-5S2QV	SRR1364780	Poor D-statistic
GTEX-ZDTT-2726-SM-4WKF8	SRR1365332	Mismatch rate gt 0.008
GTEX-ZAK1-2326-SM-5CVMY	SRR1365575	Poor D-statistic
GTEX-ZF29-1626-SM-4WKFJ	SRR1365655	Mismatch rate gt 0.008
GTEX-WXYG-0826-SM-4ONC7	SRR1365743	Mismatch rate gt 0.008
GTEX-ZDXO-2726-SM-4WKFA	SRR1365963	Mismatch rate gt 0.008
GTEX-1128S-2626-SM-5H11Z	SRR1366390	Poor D-statistic
GTEX-ZDXO-0426-SM-4WKF6	SRR1366519	Mismatch rate gt 0.008
GTEX-ZF28-0011-R7a-SM-4WKF5	SRR1366961	Mismatch rate gt 0.008
GTEX-ZE9C-0006-SM-4WKG2	SRR1367432	Mismatch rate gt 0.008
GTEX-OXRP-0326-SM-5SI7J	SRR1367588	Lower Quality Replicate
GTEX-WY7C-1526-SM-4OND2	SRR1367761	Mismatch rate gt 0.008
GTEX-WYJK-0726-SM-4ONC9	SRR1367896	Mismatch rate gt 0.008
GTEX-ZAB4-1426-SM-5CVN6	SRR1367920	Poor D-statistic
GTEX-11WQK-1826-SM-5EQM2	SRR1368986	Poor D-statistic
GTEX-139TT-0226-SM-5K7YH	SRR1370329	Poor D-statistic
GTEX-ZF2S-0626-SM-4WKH2	SRR1370423	Mismatch rate gt 0.008
GTEX-WHPG-1326-SM-4M1ZJ	SRR1370447	Poor D-statistic,Mismatch rate gt 0.008
GTEX-WL46-1226-SM-4OOS4	SRR1374165	Poor D-statistic
GTEX-11TUW-0926-SM-5EQMW	SRR1374198	Poor D-statistic
GTEX-117YW-2726-SM-5GZZT	SRR1374270	Poor D-statistic
GTEX-ZF28-0005-SM-4WKH3	SRR1374647	Mismatch rate gt 0.008
GTEX-11GSP-0126-SM-5A5KU	SRR1374716	Poor D-statistic
GTEX-ZPU1-1526-SM-4YCFF	SRR1375394	Poor D-statistic
GTEX-POYW-1226-SM-5LZWQ	SRR1375738	Lower Quality Replicate
GTEX-Y5V6-1226-SM-4VDTE	SRR1375883	Poor D-statistic
GTEX-WHSB-2326-SM-4M1XK	SRR1376450	Mismatch rate gt 0.008
GTEX-13FHP-1026-SM-5K7Y2	SRR1376539	Poor D-statistic
GTEX-11EI6-3126-SM-5H111	SRR1376557	Poor D-statistic
GTEX-YF7O-1526-SM-5IFI6	SRR1376579	Poor D-statistic
GTEX-12WSD-1626-SM-5GCNR	SRR1376718	Poor D-statistic
GTEX-13FHP-1626-SM-5N9FK	SRR1376874	Poor D-statistic
GTEX-YEC3-0826-SM-5P9JF	SRR1377557	Lower Quality Replicate
GTEX-ZQUD-1026-SM-4YCEZ	SRR1378924	Poor D-statistic
GTEX-WYBS-1026-SM-4ONCY	SRR1379065	Mismatch rate gt 0.008
GTEX-WHSB-0326-SM-5GICB	SRR1379089	Lower Quality Replicate
GTEX-13FH7-0726-SM-5J2NK	SRR1379519	Poor D-statistic
GTEX-14ABY-0005-SM-5O99U	SRR1379538	Poor D-statistic
GTEX-11OF3-2226-SM-5986F	SRR1379581	Poor D-statistic
GTEX-Y3I4-1326-SM-4TT8Z	SRR1380436	Poor D-statistic
GTEX-11ZVC-0526-SM-5N9G1	SRR1380785	Poor D-statistic
GTEX-13NYS-0426-SM-5MR4X	SRR1380829	Poor D-statistic
GTEX-1192W-2326-SM-5N9BS	SRR1381613	Poor D-statistic
GTEX-ZLWG-0226-SM-4WWC6	SRR1381733	Mismatch rate gt 0.008
GTEX-ZF28-2926-SM-4WKG1	SRR1382708	Mismatch rate gt 0.008
GTEX-ZEX8-0526-SM-4WKH5	SRR1382756	Mismatch rate gt 0.008
GTEX-145MI-0011-R7b-SM-5Q5AZ	SRR1382869	Poor D-statistic
GTEX-WYJK-2526-SM-4ONDF	SRR1383213	Mismatch rate gt 0.008
GTEX-WYJK-1926-SM-4ONDP	SRR1383301	Mismatch rate gt 0.008
GTEX-13N1W-0011-R11a-SM-5MR3D	SRR1383633	Poor D-statistic
GTEX-ZP4G-2426-SM-57WEY	SRR1383808	Poor D-statistic
GTEX-WK11-1326-SM-4OOSI	SRR1384049	Mismatch rate gt 0.008
GTEX-13NZ8-0326-SM-5L3DF	SRR1385300	Poor D-statistic
GTEX-111FC-1426-SM-5N9C7	SRR1386689	Lower Quality Replicate
GTEX-Z93S-0011-R2a-SM-4RGNG	SRR1386818	Poor D-statistic
GTEX-ZGAY-1226-SM-4YCF4	SRR1386865	Poor D-statistic
GTEX-13QBU-2126-SM-5KLZN	SRR1386927	Poor D-statistic
GTEX-POYW-0526-SM-5KM2H	SRR1387054	Lower Quality Replicate
GTEX-PLZ6-0626-SM-5K7WJ	SRR1387431	Lower Quality Replicate
GTEX-WHSB-0426-SM-4M1XI	SRR1387449	Mismatch rate gt 0.008
GTEX-145MF-1726-SM-5LU9H	SRR1387685	Poor D-statistic
GTEX-PWCY-0526-SM-5PNU8	SRR1387702	Lower Quality Replicate
GTEX-Y5V5-1826-SM-4VDS5	SRR1387745	Poor D-statistic
GTEX-POYW-1226-SM-5LU5O	SRR1387769	Lower Quality Replicate
GTEX-13PDP-1326-SM-5K7U9	SRR1388419	Poor D-statistic
GTEX-WY7C-0004-SM-4ONDS	SRR1388746	Mismatch rate gt 0.008
GTEX-ZF28-1026-SM-4WKGV	SRR1388935	Mismatch rate gt 0.008
GTEX-PVOW-1026-SM-5O9B9	SRR1389084	Lower Quality Replicate
GTEX-13NZ8-0011-R1b-SM-5KM3V	SRR1389218	Poor D-statistic
GTEX-11GSP-0426-SM-5A5KX	SRR1389409	Poor D-statistic
GTEX-ZAK1-1526-SM-5S2OV	SRR1389798	Poor D-statistic
GTEX-ZQG8-1926-SM-4YCEO	SRR1389820	Poor D-statistic
GTEX-1269C-3226-SM-5EGKT	SRR1390119	Poor D-statistic
GTEX-WYVS-1826-SM-4OND6	SRR1390179	Mismatch rate gt 0.008
GTEX-ZDTS-0526-SM-4WKH9	SRR1391420	Mismatch rate gt 0.008
GTEX-ZF29-0326-SM-4WKFB	SRR1391529	Mismatch rate gt 0.008
GTEX-ZYWO-1726-SM-5E44T	SRR1391856	Poor D-statistic
GTEX-Q2AH-0005-SM-5SI7G	SRR1392547	Lower Quality Replicate
GTEX-WHPG-0726-SM-4M1XX	SRR1392835	Mismatch rate gt 0.008
GTEX-QVJO-1226-SM-4R1KA	SRR1392883	Poor D-statistic,Mismatch rate gt 0.008
GTEX-ZQUD-0626-SM-51MR2	SRR1394101	Poor D-statistic
GTEX-ZLV1-0126-SM-4WWBZ	SRR1394655	Poor D-statistic
GTEX-ZYFD-2026-SM-5E459	SRR1395659	Poor D-statistic
GTEX-ZE9C-1426-SM-4WKGM	SRR1396700	Mismatch rate gt 0.008
GTEX-YEC4-1026-101814-SM-5P9FX	SRR1397115	Lower Quality Replicate
GTEX-131XE-0926-SM-5HL7J	SRR1397558	Poor D-statistic
GTEX-WOFM-1926-SM-4OOSP	SRR1397781	Poor D-statistic
GTEX-ZDTT-0126-SM-4WKHA	SRR1398114	Mismatch rate gt 0.008
GTEX-12696-0626-SM-5EGGD	SRR1398905	Poor D-statistic
GTEX-12WSL-2426-SM-5GCN7	SRR1398924	Poor D-statistic
GTEX-11DXZ-1826-SM-5H12Y	SRR1399113	Poor D-statistic
GTEX-12696-2926-SM-5FQTG	SRR1399201	Poor D-statistic
GTEX-13111-1826-SM-5GCP1	SRR1399734	Poor D-statistic
GTEX-ZF29-1826-SM-4WKG8	SRR1400008	Poor D-statistic,Mismatch rate gt 0.008
GTEX-ZDYS-0002-SM-4WKGR	SRR1400054	Mismatch rate gt 0.008
GTEX-WYVS-0008-SM-4ONDY	SRR1400443	Mismatch rate gt 0.008
GTEX-14DAQ-1826-SM-5S2VV	SRR1400730	Poor D-statistic
GTEX-ZF2S-0326-SM-4WKGD	SRR1400775	Mismatch rate gt 0.008
GTEX-WY7C-1426-SM-4OND1	SRR1400931	Mismatch rate gt 0.008
GTEX-WH7G-0726-SM-5EGIX	SRR1400955	Lower Quality Replicate
GTEX-WH7G-0726-SM-5EQ6C	SRR1401101	Lower Quality Replicate
GTEX-ZF29-0126-SM-4WKGZ	SRR1401317	Mismatch rate gt 0.008
GTEX-WYJK-2426-SM-4ONDQ	SRR1401528	Mismatch rate gt 0.008
GTEX-11EQ8-2626-SM-5N9BO	SRR1401774	Poor D-statistic
GTEX-111CU-0426-SM-5GZY1	SRR1401933	Poor D-statistic
GTEX-ZTTD-0526-SM-57WDV	SRR1402068	Poor D-statistic
GTEX-ZQG8-2226-SM-5DUWD	SRR1402132	Poor D-statistic
GTEX-12696-3026-SM-5FQTU	SRR1402239	Poor D-statistic
GTEX-YB5K-0426-SM-5LUA4	SRR1403072	Poor D-statistic
GTEX-ZVZQ-0326-SM-59HLL	SRR1403177	Poor D-statistic
GTEX-WY7C-0726-SM-4ONCB	SRR1403434	Mismatch rate gt 0.008
GTEX-TMMY-0926-SM-4WKH4	SRR1403478	Lower Quality Replicate,Mismatch rate gt 0.008
GTEX-ZYT6-1326-SM-5E453	SRR1403611	Poor D-statistic
GTEX-1269C-0003-SM-5S2PB	SRR1404024	Poor D-statistic
GTEX-YEC3-1426-SM-5PNXW	SRR1404147	Lower Quality Replicate
GTEX-1399T-1526-SM-5P9J6	SRR1404421	Poor D-statistic
GTEX-WHSE-0726-SM-4RTXA	SRR1404555	Poor D-statistic
GTEX-WHPG-0326-SM-4M1XV	SRR1404856	Mismatch rate gt 0.008
GTEX-YJ8A-0726-SM-5Q5A6	SRR1405078	Poor D-statistic
GTEX-ZF29-0626-SM-4WKHD	SRR1405099	Mismatch rate gt 0.008
GTEX-YEC3-2526-101809-SM-5CVLT	SRR1405266	Lower Quality Replicate
GTEX-PLZ6-0426-SM-5IJDW	SRR1405504	Lower Quality Replicate
GTEX-WXYG-1726-SM-4ONCU	SRR1405921	Mismatch rate gt 0.008
GTEX-Y8LW-1126-SM-4VDS4	SRR1406394	Poor D-statistic
GTEX-13NYB-1826-SM-5J1N3	SRR1406643	Poor D-statistic
GTEX-WHSB-0926-SM-4M1XJ	SRR1407018	Mismatch rate gt 0.008
GTEX-ZF2S-0426-SM-4WKGP	SRR1407334	Mismatch rate gt 0.008
GTEX-WHPG-1126-SM-4M1XT	SRR1407360	Mismatch rate gt 0.008
GTEX-ZYVF-1626-SM-5N9EH	SRR1407428	Poor D-statistic
GTEX-ZUA1-2626-SM-5NQ92	SRR1407602	Poor D-statistic
GTEX-UPJH-0826-SM-4WKFD	SRR1408136	Mismatch rate gt 0.008
GTEX-ZF28-0526-SM-4WKGW	SRR1408529	Mismatch rate gt 0.008
GTEX-WY7C-2026-SM-4ONCM	SRR1408703	Mismatch rate gt 0.008
GTEX-WY7C-2226-SM-4ONCS	SRR1409022	Poor D-statistic,Mismatch rate gt 0.008
GTEX-ZP4G-2026-SM-57WEH	SRR1409130	Poor D-statistic
GTEX-ZF29-0226-SM-4WKHO	SRR1409641	Mismatch rate gt 0.008
GTEX-13N2G-0011-R5a-SM-5MR33	SRR1410783	Poor D-statistic
GTEX-11ZU8-0011-R3a-SM-5BC6U	SRR1410912	Poor D-statistic
GTEX-11LCK-1926-SM-5A5KE	SRR1410979	Poor D-statistic
GTEX-1117F-2226-SM-5N9CH	SRR1413373	Poor D-statistic
GTEX-ZF29-0006-SM-4WKGQ	SRR1413810	Mismatch rate gt 0.008
GTEX-ZF29-1126-SM-4WKGO	SRR1414613	Mismatch rate gt 0.008
GTEX-12WSG-0226-SM-5EGIF	SRR1415195	Poor D-statistic
GTEX-ZDTT-0226-SM-4WKHM	SRR1415439	Mismatch rate gt 0.008
GTEX-14A5I-2126-SM-5NQA8	SRR1415567	Poor D-statistic
GTEX-13NZA-1726-SM-5J1NA	SRR1415919	Poor D-statistic
GTEX-WHWD-0926-SM-4OORY	SRR1416266	Poor D-statistic
GTEX-11PRG-2226-SM-5GU5R	SRR1416516	Poor D-statistic
GTEX-YF7O-0004-SM-4W1ZT	SRR1416955	Poor D-statistic
GTEX-ZDXO-0011-R3a-SM-4WKFS	SRR1416999	Mismatch rate gt 0.008
GTEX-ZF28-3026-SM-4WKHP	SRR1417827	Mismatch rate gt 0.008
GTEX-1192X-2926-SM-5N9BA	SRR1418473	Poor D-statistic
GTEX-ZF29-1726-SM-4WKFV	SRR1418492	Mismatch rate gt 0.008
GTEX-14753-0011-R5a-SM-5S2VW	SRR1418604	Poor D-statistic
GTEX-WYJK-1226-SM-4ONCP	SRR1418856	Mismatch rate gt 0.008
GTEX-ZE9C-3026-SM-4WKHB	SRR1419187	Mismatch rate gt 0.008
GTEX-ZF29-0002-SM-4WKF2	SRR1419234	Mismatch rate gt 0.008
GTEX-Y8LW-0626-SM-4VDS8	SRR1419736	Poor D-statistic
GTEX-ZDTT-2426-SM-4WKFX	SRR1419760	Mismatch rate gt 0.008
GTEX-ZE9C-0011-R2a-SM-4WKGH	SRR1419893	Mismatch rate gt 0.008
GTEX-ZDXO-0006-SM-4WKGF	SRR1420320	Mismatch rate gt 0.008
GTEX-14A5H-0226-SM-5S2VK	SRR1420469	Poor D-statistic
GTEX-ZDXO-0011-R2b-SM-4WKFG	SRR1420625	Mismatch rate gt 0.008
GTEX-ZDTS-1026-SM-4WAXS	SRR1421010	Mismatch rate gt 0.008
GTEX-11EQ9-0008-SM-5Q5DK	SRR1421116	Poor D-statistic
GTEX-13X6H-0126-SM-5QGOS	SRR1429387	Poor D-statistic
GTEX-13IVO-3026-SM-5J2M2	SRR1429450	Poor D-statistic
GTEX-WOFM-0426-SM-4OOSG	SRR1429770	Poor D-statistic
GTEX-14A5I-1226-SM-5NQBW	SRR1430420	Poor D-statistic
GTEX-XGQ4-1726-SM-4RH4G	SRR1430703	Poor D-statistic
GTEX-11WQK-0011-R11a-SM-5BC6W	SRR1430817	Poor D-statistic
GTEX-ZF29-1526-SM-4WKF7	SRR1430860	Mismatch rate gt 0.008
GTEX-13JVG-1326-SM-5N9F8	SRR1430951	Poor D-statistic
GTEX-144FL-2326-SM-5LUAC	SRR1431552	Poor D-statistic
GTEX-WYVS-2026-SM-4PQZ4	SRR1431823	Lower Quality Replicate
GTEX-146FH-1826-SM-5QGQ7	SRR1431948	Poor D-statistic
GTEX-ZVT3-1426-SM-59HLP	SRR1432408	Poor D-statistic
GTEX-12BJ1-2226-SM-5BC6G	SRR1432868	Poor D-statistic
GTEX-11P82-1926-SM-5Q5AU	SRR1432913	Poor D-statistic
GTEX-ZDYS-1526-SM-4WKFY	SRR1433107	Mismatch rate gt 0.008
GTEX-WY7C-0008-SM-4ONDW	SRR1433514	Mismatch rate gt 0.008
GTEX-13113-0626-SM-5GCP2	SRR1433661	Poor D-statistic
GTEX-QEG4-0426-SM-5S2VQ	SRR1433684	Lower Quality Replicate
GTEX-ZYFD-2526-SM-5E45L	SRR1434545	Poor D-statistic
GTEX-TMMY-0926-SM-4VBQZ	SRR1435066	Lower Quality Replicate
GTEX-YFC4-2626-SM-5P9FQ	SRR1435113	Poor D-statistic
GTEX-ZPIC-1026-SM-59HKZ	SRR1435136	Poor D-statistic
GTEX-ZF2S-1126-SM-4WKHH	SRR1435394	Mismatch rate gt 0.008
GTEX-WHSB-0726-SM-4M1XQ	SRR1435857	Mismatch rate gt 0.008
GTEX-13SLX-1326-SM-5S2QS	SRR1436187	Poor D-statistic
GTEX-11P82-1226-SM-5HL5P	SRR1436280	Poor D-statistic
GTEX-ZF2S-0004-SM-4WKFE	SRR1436420	Mismatch rate gt 0.008
GTEX-ZE9C-0011-R4a-SM-4WKH6	SRR1436966	Mismatch rate gt 0.008
GTEX-ZLFU-2026-SM-4WWG2	SRR1437012	Poor D-statistic
GTEX-ZDTT-2126-SM-5S2O7	SRR1437073	Lower Quality Replicate
GTEX-WI4N-2026-SM-4OOS7	SRR1437274	Poor D-statistic
GTEX-11WQK-3126-SM-5EGI2	SRR1440013	Poor D-statistic
GTEX-WYJK-1526-SM-4ONCW	SRR1440200	Poor D-statistic,Mismatch rate gt 0.008
GTEX-ZEX8-0004-SM-4WKFQ	SRR1440397	Mismatch rate gt 0.008
GTEX-YEC4-1026-SM-5P9FW	SRR1440721	Poor D-statistic
GTEX-ZVZP-2026-SM-57WB3	SRR1440809	rRNA rate gt 0.30,Intergenic rate gt 0.30
GTEX-11TUW-1226-SM-5GU7C	SRR1441029	Poor D-statistic
GTEX-11WQK-2326-SM-5GU4Z	SRR1441075	Poor D-statistic
GTEX-ZDXO-2926-SM-4WKFM	SRR1441200	Mismatch rate gt 0.008
GTEX-OXRO-0011-R9A-SM-5S2W3	SRR1441701	Lower Quality Replicate
GTEX-ZTTD-0326-SM-57WFW	SRR1442104	Poor D-statistic
GTEX-ZDTS-0826-SM-4WKHL	SRR1442376	Mismatch rate gt 0.008
GTEX-11NUK-1426-SM-5HL68	SRR1442592	Poor D-statistic
GTEX-ZDXO-0326-SM-4WKHJ	SRR1442754	Mismatch rate gt 0.008
K-562-SM-4WAWH	SRR1443049	K-562 Control,Mismatch rate gt 0.008
GTEX-ZDYS-2426-SM-4WKGI	SRR1443113	Mismatch rate gt 0.008
GTEX-WHSB-0526-SM-4M1XM	SRR1443350	Mismatch rate gt 0.008
GTEX-ZDYS-1026-SM-4WKHC	SRR1443483	Mismatch rate gt 0.008
GTEX-WXYG-1426-SM-4ONCK	SRR1443544	Mismatch rate gt 0.008
GTEX-X4XX-0726-SM-4QARS	SRR1443847	Poor D-statistic
GTEX-ZVT2-1526-SM-51MQZ	SRR1444598	Poor D-statistic
GTEX-13OW5-1126-SM-5J1NR	SRR1444722	Poor D-statistic
GTEX-ZYW4-1026-SM-5SI8W	SRR1444954	Poor D-statistic
GTEX-ZAB5-1226-SM-5P9FY	SRR1445023	Poor D-statistic
GTEX-148VJ-1626-SM-5QGPH	SRR1445111	Poor D-statistic
GTEX-13NZA-3126-SM-5IJFU	SRR1445132	Poor D-statistic
GTEX-145MI-0011-R5a-SM-5Q5B4	SRR1445238	Poor D-statistic
GTEX-WY7C-0326-SM-4OND5	SRR1445304	Mismatch rate gt 0.008
GTEX-YEC3-2026-SM-5CVLQ	SRR1445426	Lower Quality Replicate
GTEX-X4EP-0011-R8B-SM-4QASL	SRR1445895	Poor D-statistic
GTEX-ZDTT-1126-SM-4WKFW	SRR1445960	Mismatch rate gt 0.008
GTEX-145MI-3126-SM-5Q5CF	SRR1446071	Poor D-statistic
GTEX-YEC3-0726-SM-5IFIW	SRR1446226	Lower Quality Replicate
GTEX-13CF3-0826-SM-5LZYZ	SRR1446393	Poor D-statistic
GTEX-WHSE-0426-SM-4M1XO	SRR1446911	Mismatch rate gt 0.008
GTEX-ZE9C-0011-R11a-SM-4WKGG	SRR1446937	Mismatch rate gt 0.008
GTEX-11XUK-0226-SM-5EQLW	SRR1447325	Poor D-statistic
GTEX-WYJK-2126-SM-4ONDG	SRR1447499	Mismatch rate gt 0.008
GTEX-ZF29-1026-SM-4WKGC	SRR1447736	Mismatch rate gt 0.008
GTEX-13SLX-1726-SM-5Q5E5	SRR1447784	Poor D-statistic
GTEX-ZDTS-1226-SM-4WKGL	SRR1452491	Mismatch rate gt 0.008
GTEX-PLZ6-0626-SM-5J1P1	SRR1452537	Lower Quality Replicate
GTEX-ZEX8-1026-SM-4WKHE	SRR1452556	Mismatch rate gt 0.008
GTEX-ZDYS-1626-SM-4WKGB	SRR1452580	Mismatch rate gt 0.008
GTEX-ZDTS-1326-SM-4WKGX	SRR1452741	Mismatch rate gt 0.008
GTEX-YEC3-1926-SM-5IFIT	SRR1452785	Lower Quality Replicate
GTEX-Y111-2226-SM-4SOJB	SRR1452957	Poor D-statistic
GTEX-1477Z-2226-SM-5QGPG	SRR1453005	Poor D-statistic
GTEX-ZDYS-2526-SM-4WKGU	SRR1453047	Mismatch rate gt 0.008
GTEX-OHPM-2626-SM-5SI7I	SRR1453787	Lower Quality Replicate
GTEX-13113-1426-SM-5EGHU	SRR1454031	Poor D-statistic
GTEX-WY7C-0126-SM-4ONCO	SRR1454177	Mismatch rate gt 0.008
GTEX-131XG-0926-SM-5LZW5	SRR1454247	Poor D-statistic
GTEX-ZV6S-1426-SM-59HKX	SRR1454607	Poor D-statistic
GTEX-WHSE-0526-SM-5HL79	SRR1454651	Lower Quality Replicate
GTEX-1117F-0226-SM-5GZZ7	SRR1455038	Poor D-statistic
GTEX-11TUW-3126-SM-5GU4Y	SRR1455369	Poor D-statistic
GTEX-ZF29-0426-SM-4WKFN	SRR1455607	Mismatch rate gt 0.008
GTEX-145MI-0011-R8b-SM-5PNZ9	SRR1455677	Poor D-statistic
GTEX-ZE9C-0726-SM-4WKGA	SRR1456161	Mismatch rate gt 0.008
GTEX-WHPG-0926-SM-4M1XY	SRR1456375	Poor D-statistic,Mismatch rate gt 0.008
GTEX-ZEX8-0326-SM-4WKGS	SRR1456567	Mismatch rate gt 0.008
GTEX-13X6J-1626-SM-5Q5CV	SRR1456794	Poor D-statistic
GTEX-13IVO-0011-R11b-SM-5LZXQ	SRR1456903	Poor D-statistic
GTEX-PLZ5-0926-SM-4RGM9	SRR1456924	Lower Quality Replicate
GTEX-ZDXO-0011-R5a-SM-4WKG5	SRR1457221	Mismatch rate gt 0.008
GTEX-WK11-1126-SM-4OOSJ	SRR1457527	Mismatch rate gt 0.008
GTEX-ZYFD-2226-SM-5E43P	SRR1458529	Poor D-statistic
GTEX-XK95-2726-SM-4V6G6	SRR1458619	Poor D-statistic
GTEX-13O3Q-2826-SM-5KM2N	SRR1458643	Poor D-statistic
GTEX-ZYVF-0626-SM-5E43Q	SRR1458683	Poor D-statistic
GTEX-13O3P-1226-SM-5J2O8	SRR1458727	Poor D-statistic
GTEX-13OVI-1826-SM-5IFFT	SRR1458789	Lower Quality Replicate
GTEX-12WSH-0126-SM-5GCO3	SRR1459055	Poor D-statistic
GTEX-ZAJG-2826-SM-5HL8D	SRR1459147	Poor D-statistic
GTEX-YFCO-1626-SM-4W1Z3	SRR1459465	Poor D-statistic
GTEX-ZDTT-0726-SM-4WKFK	SRR1460124	Mismatch rate gt 0.008
GTEX-WH7G-2126-SM-4M1XU	SRR1460337	Mismatch rate gt 0.008
GTEX-11NV4-0626-SM-5N9BR	SRR1465153	Poor D-statistic
GTEX-WYJK-1826-SM-4ONDM	SRR1465289	Mismatch rate gt 0.008
GTEX-13N2G-1226-SM-5IJCI	SRR1465522	Poor D-statistic
GTEX-11ZUS-0626-SM-59885	SRR1465565	Poor D-statistic
GTEX-117YW-2926-SM-5GIEQ	SRR1465632	Poor D-statistic
K-562-SM-4WKF1	SRR1465959	K-562 Control,Mismatch rate gt 0.008
GTEX-ZV68-0926-SM-59HK7	SRR1466299	Poor D-statistic
GTEX-1399U-1726-SM-5P9J4	SRR1466469	Poor D-statistic
GTEX-WYVS-0226-SM-4ONDK	SRR1466663	Mismatch rate gt 0.008
GTEX-ZV7C-1326-SM-51MSH	SRR1466951	Lower Quality Replicate
GTEX-ZUA1-3126-SM-59HJ8	SRR1468700	Poor D-statistic
GTEX-ZVT2-2626-SM-51MTD	SRR1469321	Poor D-statistic
GTEX-131XH-2626-SM-5GCNP	SRR1469390	Poor D-statistic
GTEX-11TUW-0011-R5b-SM-5BC6Q	SRR1469495	Poor D-statistic
GTEX-ZF28-0826-SM-4WKGJ	SRR1469791	Mismatch rate gt 0.008
GTEX-ZU9S-1626-SM-5E452	SRR1469950	Poor D-statistic
GTEX-ZDYS-0726-SM-4WKGN	SRR1469973	Mismatch rate gt 0.008
GTEX-YB5K-1426-SM-5IFIB	SRR1470273	Poor D-statistic
GTEX-ZF29-1226-SM-4WKH1	SRR1471074	Mismatch rate gt 0.008
GTEX-X4EO-0004-SM-4QARM	SRR1471500	Poor D-statistic
GTEX-WYJK-0008-SM-4ONDV	SRR1472033	Mismatch rate gt 0.008
GTEX-WXYG-1226-SM-4ONCJ	SRR1472126	Mismatch rate gt 0.008
GTEX-ZDXO-0011-R1a-SM-4WKF4	SRR1472323	Mismatch rate gt 0.008
GTEX-NPJ8-0011-R1a-SM-5SI8B	SRR1472770	Lower Quality Replicate
GTEX-12WSD-1726-SM-5GCN4	SRR1472929	Poor D-statistic
GTEX-12ZZX-3026-SM-5GCP3	SRR1473567	Poor D-statistic
GTEX-11TUW-1726-SM-5BC5C	SRR1473674	Poor D-statistic
GTEX-11DXZ-2226-SM-5EGH2	SRR1473714	Poor D-statistic
GTEX-WYVS-1526-SM-4OND4	SRR1473754	Mismatch rate gt 0.008
GTEX-ZF28-3126-SM-4WKFC	SRR1474041	Mismatch rate gt 0.008
GTEX-ZV7C-0926-SM-59HL1	SRR1474617	Poor D-statistic
GTEX-13RTL-0011-R9a-SM-5Q5BR	SRR1474795	Poor D-statistic
GTEX-WY7C-0826-SM-4ONCG	SRR1474975	Mismatch rate gt 0.008
GTEX-13W3W-2226-SM-5LU4M	SRR1475785	Poor D-statistic
GTEX-13O1R-2326-SM-5IJF9	SRR1475952	Poor D-statistic
GTEX-ZAB5-2326-SM-5IJFR	SRR1476125	Poor D-statistic
GTEX-ZEX8-1626-SM-4WKG7	SRR1476255	Mismatch rate gt 0.008
GTEX-ZAKK-0426-SM-5EGHB	SRR1476365	Poor D-statistic
GTEX-1192X-1026-SM-5H12P	SRR1476485	Poor D-statistic
GTEX-P4PQ-2626-SM-5SI7K	SRR1476903	Lower Quality Replicate
GTEX-U3ZM-0426-SM-57WG1	SRR1476927	Lower Quality Replicate
GTEX-ZEX8-1926-SM-4WKFR	SRR1476974	Mismatch rate gt 0.008
GTEX-P4PP-0326-SM-5S2TQ	SRR1477033	Lower Quality Replicate
GTEX-WXYG-1626-SM-4ONCR	SRR1477125	Mismatch rate gt 0.008
GTEX-WYJK-2026-SM-4ONDE	SRR1477173	Mismatch rate gt 0.008
GTEX-WY7C-1626-SM-4ONC8	SRR1477339	Mismatch rate gt 0.008
GTEX-ZYFD-3126-SM-5E44O	SRR1477476	Poor D-statistic
GTEX-12WSH-2926-SM-5GCMR	SRR1477499	Poor D-statistic
GTEX-ZEX8-1426-SM-4WKHQ	SRR1477545	Mismatch rate gt 0.008
GTEX-13IVO-0011-R5a-SM-5L3CY	SRR1477615	Poor D-statistic
GTEX-ZT9W-2426-SM-57WFJ	SRR1477883	Poor D-statistic
GTEX-11ONC-0126-SM-5PNW6	SRR1478149	Poor D-statistic
GTEX-XQ3S-2426-SM-4WAYB	SRR1478251	Mismatch rate gt 0.008
GTEX-13OVI-0626-SM-5IJCN	SRR1478341	Poor D-statistic
GTEX-ZE9C-3126-SM-4WKHN	SRR1478523	Mismatch rate gt 0.008
GTEX-ZXG5-0626-SM-5NQ85	SRR1478812	Poor D-statistic
GTEX-ZDTT-0326-SM-4WKF9	SRR1478990	Mismatch rate gt 0.008
GTEX-ZXG5-0426-SM-5GICT	SRR1479328	Poor D-statistic
GTEX-ZVT4-1326-SM-5NQ8E	SRR1479933	Poor D-statistic
GTEX-145LU-2126-SM-5Q5E9	SRR1480083	Poor D-statistic
GTEX-WYVS-0426-SM-4ONDL	SRR1480384	Mismatch rate gt 0.008
GTEX-WYVS-0126-SM-4ONDH	SRR1480587	Mismatch rate gt 0.008
GTEX-13OVJ-0011-R3b-SM-5P9H6	SRR1480652	Poor D-statistic
GTEX-13PDP-2926-SM-5N9E8	SRR1480875	Poor D-statistic
GTEX-12KS4-1026-SM-5FQTD	SRR1480941	Poor D-statistic
GTEX-13OVI-2726-SM-5KM56	SRR1481260	Poor D-statistic
GTEX-13X6J-3126-SM-5Q5EJ	SRR1485117	Poor D-statistic
GTEX-WHSB-1026-SM-4M1XN	SRR1485587	Mismatch rate gt 0.008
GTEX-ZYFD-1026-SM-5E43Z	SRR1485931	Poor D-statistic
GTEX-13O61-0926-SM-5IFFE	SRR1486370	Poor D-statistic
GTEX-14753-1726-SM-5NQ9X	SRR1486650	Poor D-statistic
GTEX-WYBS-1626-SM-4ONCA	SRR1486821	Mismatch rate gt 0.008
GTEX-Y3I4-2026-SM-4TT6Z	SRR1486907	Poor D-statistic
GTEX-YF7O-0008-SM-4W1ZS	SRR1486949	Poor D-statistic
GTEX-11WQK-0226-SM-5EQLI	SRR1487233	Poor D-statistic
GTEX-ZF28-0126-SM-4WKGK	SRR1487614	Mismatch rate gt 0.008
GTEX-WRHK-1126-SM-4MVOJ	SRR1487704	Poor D-statistic
GTEX-WHPG-1226-SM-4M1ZI	SRR1488041	Mismatch rate gt 0.008
GTEX-ZDTT-1226-SM-4WKG9	SRR1488237	Mismatch rate gt 0.008
GTEX-13PL6-0011-R5b-SM-5O9BI	SRR1488285	Poor D-statistic
K-562-SM-4M1XD	SRR1489220	K-562 Control,Mismatch rate gt 0.008
GTEX-U3ZM-0426-SM-59HKR	SRR1489416	Lower Quality Replicate
GTEX-PWCY-2026-SM-5Q5BF	SRR1489610	Lower Quality Replicate
GTEX-YEC3-1326-SM-4WWEL	SRR1489734	Lower Quality Replicate
GTEX-ZE9C-0011-R3a-SM-4WKGT	SRR1489779	Mismatch rate gt 0.008
GTEX-145ME-0426-SM-5S2QP	SRR1489884	Poor D-statistic
GTEX-ZF2S-0006-SM-4WKHF	SRR1489926	Mismatch rate gt 0.008
GTEX-YEC3-1426-SM-4WWEM	SRR1498249	Lower Quality Replicate
GTEX-145MI-0011-R10a-SM-5PNZD	SRR1498550	Poor D-statistic
GTEX-Y3I4-0426-SM-4TT29	SRR1498813	Mismatch rate gt 0.008
GTEX-ZYY3-3126-SM-5SI9L	SRR1498861	Poor D-statistic
GTEX-WY7C-1926-SM-4ONCI	SRR1499260	Mismatch rate gt 0.008
GTEX-11TUW-1926-SM-5BC58	SRR1499460	Poor D-statistic
GTEX-11EQ8-2826-SM-5N9C1	SRR1499785	Poor D-statistic
GTEX-ZAB5-2626-SM-5KM3Y	SRR1499804	Poor D-statistic
GTEX-WY7C-0626-SM-4ONCT	SRR1499849	Mismatch rate gt 0.008
GTEX-WYJK-0626-SM-4ONCZ	SRR1500089	Mismatch rate gt 0.008
GTEX-QDVN-2126-SM-5SI7X	SRR1500216	Poor D-statistic,Lower Quality Replicate
GTEX-1117F-0526-SM-5EGHJ	SRR1500555	Poor D-statistic
GTEX-YFCO-0008-SM-4W1Z4	SRR1500574	Poor D-statistic
GTEX-WXYG-1126-SM-4ONCH	SRR1500953	Mismatch rate gt 0.008
GTEX-1399R-1326-SM-5PNYS	SRR1501043	Poor D-statistic
GTEX-13NYB-0226-SM-5N9G4	SRR1507229	Poor D-statistic
