subject	age	n_tissues	n_mutations	normalized_n_mutations
GTEX-12WSC	56	2	3	1.5
GTEX-YB5E	49	3	3	1.0
GTEX-QMR6	59	2	2	1.0
GTEX-WRHU	56	3	5	1.6666666666666667
GTEX-WL46	53	6	13	2.1666666666666665
GTEX-ZT9X	43	1	1	1.0
GTEX-RVPU	57	3	5	1.6666666666666667
GTEX-UTHO	68	4	4	1.0
GTEX-11TT1	22	1	1	1.0
GTEX-ZYT6	30	1	1	1.0
GTEX-11EQ8	69	1	1	1.0
GTEX-SIU8	55	2	2	1.0
GTEX-111CU	57	1	1	1.0
GTEX-1313W	54	1	1	1.0
GTEX-WRHK	21	1	1	1.0
GTEX-145LT	44	1	1	1.0
GTEX-UJMC	59	1	1	1.0
GTEX-OXRO	62	1	1	1.0
GTEX-ZZ64	24	1	2	2.0
GTEX-XK95	46	3	3	1.0
GTEX-12ZZY	64	2	2	1.0
GTEX-X638	70	1	1	1.0
GTEX-13PDP	62	2	3	1.5
GTEX-14BIN	56	2	6	3.0
GTEX-S7SF	22	3	4	1.3333333333333333
GTEX-QEG4	39	6	16	2.6666666666666665
GTEX-11VI4	47	1	1	1.0
GTEX-NPJ8	40	7	13	1.8571428571428572
GTEX-13111	51	1	3	3.0
GTEX-ZAK1	55	2	2	1.0
GTEX-TMKS	55	4	15	3.75
GTEX-ZVT4	56	2	4	2.0
GTEX-N7MS	61	9	18	2.0
GTEX-P4QT	50	2	2	1.0
GTEX-13NZB	35	2	2	1.0
GTEX-11EI6	62	4	4	1.0
GTEX-ZVTK	22	2	3	1.5
GTEX-13SLW	70	2	2	1.0
GTEX-WYJK	51	4	10	2.5
GTEX-139TT	60	3	10	3.3333333333333335
GTEX-VUSG	59	4	5	1.25
GTEX-SJXC	64	3	4	1.3333333333333333
GTEX-RN64	52	1	1	1.0
GTEX-OXRP	65	3	7	2.3333333333333335
GTEX-YECK	66	7	55	7.857142857142857
GTEX-11WQK	55	1	1	1.0
GTEX-ZF28	69	5	6	1.2
GTEX-145LV	53	1	1	1.0
GTEX-13G51	69	2	9	4.5
GTEX-UPK5	49	1	1	1.0
GTEX-U3ZH	31	3	3	1.0
GTEX-14A5H	69	2	5	2.5
GTEX-UPIC	21	1	2	2.0
GTEX-ZVE1	59	1	6	6.0
GTEX-WH7G	49	1	1	1.0
GTEX-XBEW	47	2	2	1.0
GTEX-YEC4	40	13	118	9.076923076923077
GTEX-14DAR	50	1	1	1.0
GTEX-11DXZ	56	2	2	1.0
GTEX-R45C	66	1	1	1.0
GTEX-13D11	58	4	5	1.25
GTEX-X5EB	49	3	6	2.0
GTEX-SUCS	70	1	2	2.0
GTEX-13PVQ	59	2	2	1.0
GTEX-XMD3	51	2	7	3.5
GTEX-14C39	46	1	2	2.0
GTEX-Q2AG	42	10	20	2.0
GTEX-X15G	55	3	4	1.3333333333333333
GTEX-YEC3	56	4	59	14.75
GTEX-PWN1	48	2	4	2.0
GTEX-13RTJ	60	1	1	1.0
GTEX-13PVR	68	2	2	1.0
GTEX-P4PQ	60	3	8	2.6666666666666665
GTEX-12WSA	67	1	3	3.0
GTEX-11ILO	43	1	2	2.0
GTEX-UPJH	59	3	5	1.6666666666666667
GTEX-S4Q7	22	8	11	1.375
GTEX-13CF2	61	2	6	3.0
GTEX-OOBK	48	3	3	1.0
GTEX-S4P3	51	5	12	2.4
GTEX-12ZZW	57	1	1	1.0
GTEX-V1D1	51	4	4	1.0
GTEX-PLZ5	50	2	2	1.0
GTEX-11XUK	48	3	4	1.3333333333333333
GTEX-WYVS	46	6	9	1.5
GTEX-ZYY3	67	1	1	1.0
GTEX-R55C	47	1	1	1.0
GTEX-148VI	61	1	2	2.0
GTEX-VJYA	67	2	2	1.0
GTEX-1122O	64	1	3	3.0
GTEX-SE5C	45	2	2	1.0
GTEX-WFON	43	8	13	1.625
GTEX-WQUQ	66	2	3	1.5
GTEX-RWSA	42	7	15	2.142857142857143
GTEX-144FL	56	1	1	1.0
GTEX-R55G	43	1	1	1.0
GTEX-XQ8I	54	1	1	1.0
GTEX-11P81	31	1	1	1.0
GTEX-R55D	58	1	1	1.0
GTEX-RU1J	21	2	2	1.0
GTEX-1399Q	46	1	1	1.0
GTEX-11WQC	64	1	2	2.0
GTEX-11DXY	62	5	11	2.2
GTEX-145MH	57	3	3	1.0
GTEX-U3ZG	51	1	1	1.0
GTEX-Z93S	52	5	6	1.2
GTEX-11GSO	61	1	4	4.0
GTEX-ZVT2	59	2	5	2.5
GTEX-1399U	50	1	1	1.0
GTEX-WEY5	44	8	19	2.375
GTEX-ZV68	57	3	6	2.0
GTEX-13OVJ	55	8	21	2.625
GTEX-QCQG	57	5	149	29.8
GTEX-113JC	53	5	11	2.2
GTEX-12C56	23	1	1	1.0
GTEX-111VG	63	4	5	1.25
GTEX-ZF3C	51	1	3	3.0
GTEX-WZTO	44	3	10	3.3333333333333335
GTEX-XPT6	22	2	2	1.0
GTEX-Y3IK	57	2	4	2.0
GTEX-1269C	62	3	10	3.3333333333333335
GTEX-13CIG	59	2	3	1.5
GTEX-14E6C	48	3	11	3.6666666666666665
GTEX-13OVH	70	3	6	2.0
GTEX-Y5LM	42	4	17	4.25
GTEX-132QS	67	3	3	1.0
GTEX-X4LF	59	2	3	1.5
GTEX-13CZV	64	2	3	1.5
GTEX-OIZI	47	2	2	1.0
GTEX-13FTW	44	1	1	1.0
GTEX-QDT8	30	11	40	3.6363636363636362
GTEX-ZYFG	67	3	5	1.6666666666666667
GTEX-ZPCL	62	4	4	1.0
GTEX-OXRL	52	3	3	1.0
GTEX-13QJ3	59	1	1	1.0
GTEX-13PL6	44	1	1	1.0
GTEX-131XG	55	2	2	1.0
GTEX-139T4	51	2	2	1.0
GTEX-X8HC	53	2	2	1.0
GTEX-ZE9C	69	1	3	3.0
GTEX-12WSG	55	3	6	2.0
GTEX-T6MN	51	4	4	1.0
GTEX-QV44	54	2	2	1.0
GTEX-R55F	55	2	7	3.5
GTEX-11OF3	63	4	13	3.25
GTEX-ZAB4	47	2	3	1.5
GTEX-146FH	55	2	3	1.5
GTEX-12KS4	36	1	1	1.0
GTEX-1497J	63	3	5	1.6666666666666667
GTEX-13X6K	61	2	2	1.0
GTEX-11NUK	53	2	8	4.0
GTEX-11ZVC	56	3	3	1.0
GTEX-N7MT	68	4	4	1.0
GTEX-QLQ7	64	1	1	1.0
GTEX-11DXW	43	1	14	14.0
GTEX-QDVN	56	7	11	1.5714285714285714
GTEX-S95S	60	2	5	2.5
GTEX-11OC5	62	1	7	7.0
GTEX-PWO3	69	2	16	8.0
GTEX-14753	67	3	4	1.3333333333333333
GTEX-Y5V6	65	2	2	1.0
GTEX-Q2AI	44	4	10	2.5
GTEX-ZDTT	62	2	2	1.0
GTEX-TSE9	60	7	10	1.4285714285714286
GTEX-ZYWO	45	3	3	1.0
GTEX-REY6	62	2	2	1.0
GTEX-VJWN	58	1	1	1.0
GTEX-1211K	63	1	1	1.0
GTEX-11GS4	61	4	5	1.25
GTEX-T8EM	48	3	3	1.0
GTEX-13FH7	55	3	12	4.0
GTEX-12WSF	70	1	5	5.0
GTEX-144GO	68	2	2	1.0
GTEX-13NYB	49	7	8	1.1428571428571428
GTEX-1477Z	65	1	1	1.0
GTEX-13O3O	68	3	8	2.6666666666666665
GTEX-X3Y1	44	3	5	1.6666666666666667
GTEX-ZDXO	60	1	3	3.0
GTEX-131XH	53	2	2	1.0
GTEX-ZF2S	53	2	2	1.0
GTEX-14A5I	53	4	5	1.25
GTEX-RNOR	52	1	3	3.0
GTEX-12WSE	25	2	6	3.0
GTEX-ZVZQ	62	3	7	2.3333333333333335
GTEX-13FTZ	67	3	5	1.6666666666666667
GTEX-WXYG	53	3	4	1.3333333333333333
GTEX-13FLV	50	1	1	1.0
GTEX-12WSD	64	5	5	1.0
GTEX-ZTX8	24	1	1	1.0
GTEX-ZTTD	50	2	2	1.0
GTEX-132NY	60	2	6	3.0
GTEX-13FXS	59	3	4	1.3333333333333333
GTEX-NL3G	67	1	1	1.0
GTEX-Y3I4	59	10	95	9.5
GTEX-WFG8	28	8	9	1.125
GTEX-Y5V5	61	2	2	1.0
GTEX-ZE7O	57	4	9	2.25
GTEX-Y9LG	32	2	4	2.0
GTEX-132Q8	68	4	4	1.0
GTEX-ZTSS	47	1	1	1.0
GTEX-TMZS	63	2	2	1.0
GTEX-T5JW	27	1	3	3.0
GTEX-SN8G	52	2	3	1.5
GTEX-1399S	33	1	1	1.0
GTEX-12126	23	2	7	3.5
GTEX-13QJC	68	3	3	1.0
GTEX-11EQ9	33	3	16	5.333333333333333
GTEX-145LS	61	1	1	1.0
GTEX-S341	48	5	7	1.4
GTEX-ZF29	66	3	3	1.0
GTEX-S7PM	65	2	6	3.0
GTEX-13FHP	56	4	180	45.0
GTEX-131XE	50	3	3	1.0
GTEX-XBEC	57	1	1	1.0
GTEX-PLZ6	36	3	6	2.0
GTEX-V955	60	5	5	1.0
GTEX-131YS	67	5	11	2.2
GTEX-YF7O	53	9	86	9.555555555555555
GTEX-XOTO	59	2	3	1.5
GTEX-13112	52	2	2	1.0
GTEX-S4Z8	63	4	8	2.0
GTEX-14E6E	31	2	3	1.5
GTEX-13S7M	66	1	1	1.0
GTEX-ZYFD	55	2	2	1.0
GTEX-12WS9	59	4	7	1.75
GTEX-12ZZX	49	1	6	6.0
GTEX-131XW	51	2	4	2.0
GTEX-117XS	64	3	6	2.0
GTEX-Y114	50	20	119	5.95
GTEX-145MF	50	1	1	1.0
GTEX-11EMC	66	3	5	1.6666666666666667
GTEX-1192X	55	2	2	1.0
GTEX-O5YV	67	1	6	6.0
GTEX-12WSI	54	2	3	1.5
GTEX-11TUW	66	3	5	1.6666666666666667
GTEX-U3ZM	41	1	1	1.0
GTEX-X4EP	63	15	42	2.8
GTEX-13OW6	59	2	5	2.5
GTEX-Y8E4	46	5	5	1.0
GTEX-145LU	50	2	2	1.0
GTEX-144GN	51	2	2	1.0
GTEX-Y8LW	53	1	2	2.0
GTEX-146FR	68	1	1	1.0
GTEX-13VXU	58	3	3	1.0
GTEX-11ZUS	37	13	16	1.2307692307692308
GTEX-RVPV	67	1	10	10.0
GTEX-1192W	68	3	3	1.0
GTEX-13FTX	28	1	1	1.0
GTEX-11PRG	54	3	3	1.0
GTEX-11O72	48	5	17	3.4
GTEX-14DAQ	63	1	2	2.0
GTEX-145ME	46	5	15	3.0
GTEX-ZQUD	34	1	1	1.0
GTEX-13IVO	70	3	3	1.0
GTEX-14AS3	48	1	1	1.0
GTEX-P78B	48	1	1	1.0
GTEX-13O21	59	1	2	2.0
GTEX-12ZZZ	64	2	2	1.0
GTEX-POYW	62	2	2	1.0
GTEX-T5JC	27	7	7	1.0
GTEX-OXRK	51	3	11	3.6666666666666665
GTEX-R3RS	48	3	4	1.3333333333333333
GTEX-YBZK	54	1	1	1.0
GTEX-S32W	58	6	6	1.0
GTEX-13NZA	64	4	4	1.0
GTEX-WWYW	52	5	6	1.2
GTEX-13NYC	67	3	8	2.6666666666666665
GTEX-ZDTS	66	1	1	1.0
GTEX-RM2N	55	2	3	1.5
GTEX-T2IS	24	1	1	1.0
GTEX-ZQG8	65	1	6	6.0
GTEX-ZAKK	70	1	1	1.0
GTEX-TMMY	42	2	3	1.5
GTEX-XQ3S	26	3	7	2.3333333333333335
GTEX-QVUS	69	1	1	1.0
GTEX-WCDI	56	2	2	1.0
GTEX-13NYS	63	1	1	1.0
GTEX-139TU	64	5	6	1.2
GTEX-OIZG	59	3	3	1.0
GTEX-OHPN	61	2	2	1.0
GTEX-WHSE	20	5	20	4.0
GTEX-OOBJ	61	3	3	1.0
GTEX-XUW1	56	1	1	1.0
GTEX-S33H	39	9	79	8.777777777777779
GTEX-117YW	58	6	14	2.3333333333333335
GTEX-W5X1	48	4	6	1.5
GTEX-P44G	34	1	1	1.0
GTEX-QEL4	56	1	7	7.0
GTEX-XUJ4	64	2	2	1.0
GTEX-13S86	44	1	1	1.0
GTEX-11LCK	38	1	1	1.0
GTEX-Y111	50	2	11	5.5
GTEX-YFCO	49	12	89	7.416666666666667
GTEX-YJ89	60	3	3	1.0
GTEX-ZTPG	21	1	1	1.0
GTEX-SIU7	51	2	4	2.0
GTEX-NL4W	53	1	1	1.0
GTEX-11ZTT	67	1	1	1.0
GTEX-YFC4	47	2	12	6.0
GTEX-13OW7	53	4	5	1.25
GTEX-P4QR	68	1	2	2.0
GTEX-XLM4	64	1	1	1.0
GTEX-139UC	67	2	2	1.0
GTEX-XOT4	68	2	2	1.0
GTEX-14BIM	64	2	3	1.5
GTEX-NL3H	60	1	2	2.0
GTEX-PX3G	27	4	8	2.0
GTEX-Y8DK	62	1	3	3.0
GTEX-11ONC	69	9	11	1.2222222222222223
GTEX-P44H	43	3	3	1.0
GTEX-P4PP	33	2	9	4.5
GTEX-ZAB5	52	1	1	1.0
GTEX-111FC	61	4	12	3.0
GTEX-QEG5	28	3	5	1.6666666666666667
GTEX-13PL7	62	1	3	3.0
GTEX-1212Z	66	4	4	1.0
GTEX-11UD2	59	2	6	3.0
GTEX-13OVL	50	11	17	1.5454545454545454
GTEX-1128S	66	2	7	3.5
GTEX-ZUA1	46	6	9	1.5
GTEX-144GL	57	1	1	1.0
GTEX-13113	61	1	1	1.0
GTEX-S4UY	41	5	10	2.0
GTEX-RWS6	69	4	5	1.25
GTEX-13SLX	57	1	1	1.0
GTEX-SNMC	21	1	1	1.0
GTEX-XXEK	53	3	26	8.666666666666666
GTEX-1399T	67	1	1	1.0
GTEX-11ZTS	67	4	7	1.75
GTEX-PSDG	50	1	1	1.0
GTEX-PVOW	40	6	7	1.1666666666666667
GTEX-147F4	50	4	7	1.75
GTEX-ZLV1	61	1	1	1.0
GTEX-146FQ	37	1	1	1.0
GTEX-O5YW	54	1	1	1.0
GTEX-RU72	59	2	2	1.0
GTEX-13W3W	65	4	9	2.25
GTEX-11DZ1	58	2	2	1.0
GTEX-Y8E5	63	1	1	1.0
GTEX-PLZ4	56	5	14	2.8
GTEX-O5YT	21	1	1	1.0
GTEX-14E1K	55	1	2	2.0
GTEX-148VJ	70	3	3	1.0
GTEX-WY7C	54	4	6	1.5
GTEX-R53T	54	3	3	1.0
GTEX-132AR	56	1	1	1.0
GTEX-NPJ7	68	3	5	1.6666666666666667
GTEX-WI4N	49	2	8	4.0
GTEX-13PLJ	60	2	5	2.5
GTEX-OXRN	59	2	2	1.0
GTEX-11P82	21	1	1	1.0
GTEX-12WSB	65	2	9	4.5
GTEX-R55E	22	1	1	1.0
GTEX-X4XX	69	3	5	1.6666666666666667
GTEX-1399R	38	1	1	1.0
GTEX-QDVJ	51	2	2	1.0
GTEX-14C5O	65	2	4	2.0
GTEX-PW2O	23	1	1	1.0
GTEX-T6MO	40	1	1	1.0
GTEX-XYKS	65	3	159	53.0
GTEX-ZXG5	66	2	565	282.5
GTEX-11DXX	66	3	3	1.0
GTEX-Q2AH	40	8	39	4.875
GTEX-T2YK	51	2	3	1.5
GTEX-ZGAY	43	1	2	2.0
GTEX-ZEX8	54	1	1	1.0
GTEX-12WSM	63	3	7	2.3333333333333335
GTEX-QMRM	53	1	1	1.0
GTEX-X261	56	3	4	1.3333333333333333
GTEX-13OVI	66	1	1	1.0
GTEX-X4EO	67	3	9	3.0
GTEX-X62O	54	1	2	2.0
GTEX-WVLH	58	5	7	1.4
GTEX-117YX	55	1	1	1.0
GTEX-139T6	50	1	1	1.0
GTEX-13W46	57	4	5	1.25
GTEX-14ASI	61	2	2	1.0
GTEX-13X6I	65	1	1	1.0
GTEX-VUSH	36	3	3	1.0
GTEX-1314G	33	1	2	2.0
GTEX-13N2G	60	1	1	1.0
GTEX-WHSB	50	3	3	1.0
GTEX-11NV4	64	2	5	2.5
GTEX-Z9EW	47	3	3	1.0
GTEX-13OW8	66	4	7	1.75
GTEX-TML8	49	3	3	1.0
GTEX-13U4I	47	5	6	1.2
GTEX-XMD2	66	1	4	4.0
GTEX-P4QS	68	3	4	1.3333333333333333
GTEX-13CF3	62	3	3	1.0
GTEX-WYBS	67	2	3	1.5
GTEX-12WSH	59	5	8	1.6
GTEX-PWOO	42	2	2	1.0
GTEX-145MN	34	4	5	1.25
GTEX-ZZPT	53	1	1	1.0
GTEX-ZLFU	47	2	2	1.0
GTEX-13QIC	65	2	2	1.0
GTEX-13JUV	46	2	2	1.0
GTEX-WK11	53	3	7	2.3333333333333335
GTEX-U8T8	60	4	4	1.0
GTEX-TKQ1	33	1	1	1.0
GTEX-14A6H	31	3	6	2.0
GTEX-13X6H	55	2	3	1.5
GTEX-ZYVF	54	1	1	1.0
GTEX-13NZ8	69	1	1	1.0
GTEX-U4B1	47	1	1	1.0
GTEX-13OW5	62	4	8	2.0
GTEX-13FTY	49	1	5	5.0
GTEX-11EM3	21	2	2	1.0
GTEX-13N11	50	1	1	1.0
GTEX-S7SE	58	4	4	1.0
GTEX-ZVT3	67	5	5	1.0
GTEX-147F3	55	2	7	3.5
GTEX-13O1R	68	3	3	1.0
GTEX-OHPM	54	1	1	1.0
GTEX-11DYG	63	2	6	3.0
GTEX-SNOS	49	1	1	1.0
GTEX-13N1W	70	6	7	1.1666666666666667
GTEX-14E7W	70	1	4	4.0
GTEX-147GR	65	1	7	7.0
GTEX-Q734	44	6	14	2.3333333333333335
GTEX-YB5K	45	1	1	1.0
GTEX-U412	61	1	2	2.0
GTEX-13VXT	24	2	2	1.0
GTEX-X585	56	2	3	1.5
GTEX-XMK1	44	1	1	1.0
GTEX-WHWD	54	2	2	1.0
GTEX-S3XE	51	2	3	1.5
GTEX-139YR	53	2	2	1.0
GTEX-13FHO	61	5	7	1.4
GTEX-11GSP	66	7	23	3.2857142857142856
GTEX-147JS	69	1	1	1.0
GTEX-WFG7	25	8	20	2.5
GTEX-WFJO	37	4	7	1.75
GTEX-QVJO	64	2	3	1.5
GTEX-14BIL	54	2	3	1.5
GTEX-OHPL	68	1	1	1.0
GTEX-14ABY	59	3	3	1.0
GTEX-ZPIC	48	1	6	6.0
GTEX-139TS	61	2	10	5.0
GTEX-ZDYS	53	9	12	1.3333333333333333
GTEX-12696	68	2	3	1.5
GTEX-WHPG	50	5	28	5.6
GTEX-XMD1	67	3	3	1.0
