0.0744680851064
0.0375
0.0888888888889
0.0833333333333
0.0547945205479
0.0662251655629
0.0346820809249
0.0733944954128
0.0322580645161
0.0244648318043
0.0320512820513
0.0356234096692
0.0234445446348
0.0714285714286
0.0923076923077
0.0653594771242
0.061797752809
0.0561797752809
0.0612244897959
0.0758293838863
0.0566037735849
0.0696721311475
0.0529801324503
0.0450704225352
0.0619469026549
0.0363247863248
0.0643776824034
0.0717131474104
0.0326295585413
0.044776119403
0.0733137829912
0.0434782608696
0.0149253731343
0.0171755725191
0.0153583617747
0.0301507537688
0.0297872340426
0.0170454545455
0.031847133758
0.0136363636364
0.0275229357798
0.0173410404624
0.0168634064081
0.0808080808081
0.0721649484536
0.0990099009901
0.0642201834862
0.0683760683761
0.0695652173913
0.0756302521008
0.0737704918033
0.0615384615385
0.0724637681159
0.0571428571429
0.0684931506849
0.0673575129534
0.0845070422535
0.0875
0.0789473684211
0.0714285714286
0.0221402214022
0.0366972477064
0.0774193548387
0.0883977900552
0.0318181818182
0.0684931506849
0.0451612903226
0.0516129032258
0.0363636363636
0.0104417670683
0.0140252454418
0.0344086021505
0.0391061452514
0.0211480362538
0.0355029585799
0.0285714285714
0.0229885057471
0.0398009950249
0.0340136054422
0.0857142857143
0.0958904109589
0.0681818181818
0.049504950495
0.0206896551724
0.0677966101695
0.0227272727273
0.0266666666667
0.0267558528428
0.0862068965517
0.014888337469
0.0833333333333
0.0444444444444
0.108695652174
0.0190274841438
0.013698630137
0.0267379679144
0.037037037037
0.0483870967742
0.0167785234899
0.026
0.0174216027875
0.0145719489982
0.0139751552795
0.0167364016736
0.0257234726688
0.027027027027
0.0471204188482
0.0611510791367
0.0789473684211
0.0416666666667
0.058064516129
0.0333333333333
0.0539568345324
0.030303030303
0.0454545454545
0.0425531914894
0.0245901639344
0.0244498777506
0.0128205128205
0.0175658720201
0.0333730631704
0.0119794637764
0.0303413400759
0.0169491525424
0.0156862745098
0.0108588351431
0.0209371884347
0.0136054421769
0.0230303030303
0.0161290322581
0.0103806228374
0.0263788968825
0.0504413619168
0.0170212765957
0.0203488372093
0.0124189063948
0.0115499254844
0.011390777145
0.0107050572167
0.0153583617747
0.0318524727578
0.0157608695652
0.0244580322401
0.0104849279161
0.0203495331578
0.0122365737593
0.0132412204951
0.0121078701156
0.0102370689655
0.011988011988
0.0120147874307
0.0122057541412
0.0102534890345
0.0120387333159
0.434382323401
0.0158415841584
0.0107163000564
0.0325443786982
0.021804835924
0.0156046814044
0.0216718266254
0.0324873096447
0.0393939393939
0.035538005923
0.0418181818182
0.0399666944213
0.0431654676259
0.0521541950113
0.0456928838951
0.0286512928022
0.0327198364008
0.0376996805112
0.02596580114
0.0281954887218
0.0480827754108
0.0618181818182
0.027380952381
0.0420560747664
0.059456398641
0.0386988222098
0.0433851098018
0.0275862068966
0.0258397932817
0.0255127563782
0.0397614314115
0.0230805463966
0.030303030303
0.0235507246377
0.034664326459
0.0307093425606
0.0296264491198
0.0207539178314
0.0210881484606
0.0206751054852
0.0251339101772
0.0237218813906
0.035129740519
0.030871434154
0.0243243243243
0.0312833274085
0.0254496097727
0.0269559500329
0.0221570544151
0.0332056194125
0.0442561205273
0.0296343001261
0.0218562874251
0.0257460503218
0.0193602693603
0.0362338731814
0.0193717277487
0.0173224449394
0.0205385668644
0.0213100044863
0.0299684542587
0.0297376093294
0.0196007259528
0.0543859649123
0.0444078947368
0.029702970297
0.043956043956
0.040704070407
0.0338983050847
0.0524691358025
0.0555555555556
0.0679611650485
0.0538321167883
0.0343270099368
0.0633130962706
0.0286195286195
0.0341382181515
0.0380875202593
0.0325203252033
0.0270700636943
0.04921875
0.027950310559
0.0257123002085
0.032571032571
0.0321917808219
0.0283209710047
0.0308196721311
0.0622134905043
0.0308398950131
0.0434227330779
0.0529925187032
0.0274135876043
0.0421115065243
0.0234636871508
0.0282215122471
0.0265674814028
0.0214884696017
0.0335078534031
0.0346611484739
0.0237358101135
0.0240532241556
0.0269461077844
0.0399802566634
0.039263208919
0.0319303338171
0.0237762237762
0.0330578512397
0.0253106304648
0.0235137533274
0.0263377926421
0.0288924558587
0.0225417800233
0.0339375241034
0.03125
0.030035335689
0.0544241573034
0.0191637630662
0.0224983210208
0.0183211192538
0.0239704978488
0.0196475007223
0.0261380323054
0.0198968312454
0.0369297610427
0.0166374781086
0.0730088495575
0.0234245439469
0.0534351145038
0.0356687898089
0.0565749235474
0.0442857142857
0.0464824120603
0.0386007237636
0.0432172869148
0.0556161395856
0.0421052631579
0.0511482254697
0.0276406712734
0.0384236453202
0.0257589696412
0.0351851851852
0.0355594102342
0.026208026208
0.0224899598394
0.0334128878282
0.0222222222222
0.0240622788393
0.0254416961131
0.0250521920668
0.0202702702703
0.0377233620119
0.0271523178808
0.0258564964447
0.0289308176101
0.0228640192539
0.0282962071042
0.0199089874858
0.0194910665945
0.0212314225053
0.0242360379347
0.0193187595323
0.0308457711443
0.0231071779744
0.0195982361587
0.0177321511899
0.0233426704015
0.015306122449
0.0194489465154
0.0153543307087
0.0167903162827
0.0142162364385
0.0182795698925
0.0238519045924
0.0169902912621
0.0187841530055
0.0158142664872
0.0191222570533
0.0205296042844
0.013657809784
0.0195790504161
0.0122086570477
0.0404494382022
0.0174516400336
0.0366795366795
0.0243542435424
0.0298769771529
0.0299401197605
0.0265700483092
0.0276854928018
0.0275423728814
0.0123056994819
0.0128205128205
0.0136953387794
0.0100810870042
0.0150572174262
0.0116257266079
0.0138116247842
0.0210970464135
0.0158434296365
0.015625
0.0230067433558
0.022465437788
0.0304709141274
0.0259168704156
0.0256916996047
0.0254969749352
0.0265217391304
0.0319845857418
0.0261744966443
0.0257826887661
0.0242182709994
0.0232430954334
0.0240215924426
0.0269430051813
0.0253353204173
0.0224076281287
0.0225844004657
0.0209459459459
0.0202702702703
0.025354733659
0.0265825636405
0.0245499181669
0.0241276171486
0.0251559669954
0.0238188207731
0.0280392156863
0.0311980801181
0.0302523817483
0.0284789644013
0.0234788359788
0.011907487978
0.0337078651685
0.0131901840491
0.0105463786531
0.0185758513932
0.0225641025641
0.107317073171
0.0583941605839
0.0597014925373
0.0277777777778
0.0144628099174
0.0137931034483
0.0248756218905
0.0293398533007
0.0255102040816
0.0404858299595
0.0520833333333
0.0402298850575
0.0389105058366
0.0375939849624
0.0242914979757
0.0483870967742
0.0215982721382
0.0147849462366
0.015911872705
0.0261904761905
0.03125
0.0562913907285
0.012315270936
0.0416666666667
0.06
0.0842105263158
0.0510204081633
0.0520833333333
0.0801687763713
0.0579710144928
0.0389221556886
0.0546448087432
0.0446685878963
0.0416666666667
0.0882352941176
0.0909090909091
0.0515463917526
0.04
0.0510204081633
0.0322580645161
0.0297619047619
0.064
0.0684210526316
0.0387596899225
0.0412371134021
0.0445859872611
0.0434782608696
0.107142857143
0.046875
0.0110410094637
0.0381471389646
0.0821917808219
0.0174129353234
0.051724137931
0.027027027027
0.129032258065
0.0344827586207
0.0597014925373
0.0606060606061
0.0833333333333
0.0485436893204
0.013201320132
0.0381679389313
0.0833333333333
0.0746268656716
0.0141732283465
0.0383211678832
0.0945945945946
0.0727272727273
0.0534979423868
0.0456621004566
0.0315315315315
0.046875
0.0833333333333
0.0294117647059
0.031007751938
0.0225303292894
0.0515463917526
0.0206489675516
0.0636363636364
0.046332046332
0.0309278350515
0.015037593985
0.0167597765363
0.0248756218905
0.0216718266254
0.0245614035088
0.0148698884758
0.0516431924883
0.0321285140562
0.0882352941176
0.0967741935484
0.0340136054422
0.0398009950249
0.0575757575758
0.032967032967
0.0232558139535
0.0252252252252
0.0184501845018
0.01393728223
0.0216718266254
0.0138121546961
0.0218068535826
0.0208333333333
0.0677966101695
0.0666666666667
0.0909090909091
0.0740740740741
0.0691489361702
0.0365853658537
0.0328947368421
0.0119250425894
0.0146103896104
0.0189125295508
0.0309278350515
0.0430379746835
0.0135135135135
0.0227848101266
0.0229357798165
0.0333333333333
0.0238907849829
0.0126811594203
0.0118243243243
0.0540540540541
0.0283018867925
0.0277777777778
0.0291262135922
0.0346534653465
0.0355555555556
0.0382978723404
0.0436507936508
0.0268199233716
0.0338345864662
0.0277777777778
0.0344827586207
0.0362694300518
0.08
0.0392156862745
0.0495867768595
0.08
0.0479452054795
0.0233463035019
0.047619047619
0.0573770491803
0.056338028169
0.0109204368175
0.0151515151515
0.0122075279756
0.0348258706468
0.037037037037
0.0300751879699
0.0148698884758
0.069918699187
0.0203125
0.0133111480865
0.0174757281553
0.0210727969349
0.0129310344828
0.0169851380042
0.0343007915567
0.0388349514563
0.0254335260116
0.0196850393701
0.0420168067227
0.0654205607477
0.0955882352941
0.0496453900709
0.0582524271845
0.0804597701149
0.0372670807453
0.0851063829787
0.0978260869565
0.994565217391
0.0666666666667
0.043956043956
0.1
0.0952380952381
0.0487804878049
0.041095890411
0.0421052631579
0.0625
0.0902255639098
0.0347222222222
0.051724137931
0.0395480225989
0.0459770114943
0.0184210526316
0.0697674418605
0.0909090909091
0.0179487179487
0.0120967741935
0.0382165605096
0.0194805194805
0.0215053763441
0.0422535211268
0.0508474576271
0.0355029585799
0.0779816513761
0.0548387096774
0.054
0.0283400809717
0.0132930513595
0.0280065897858
0.0411899313501
0.0131421744325
0.0353185595568
0.0202541699762
0.043893129771
0.0491337688157
0.0232166890983
0.0108205590622
0.0372492836676
0.0262948207171
0.0106449592987
0.0530303030303
0.0265151515152
0.0625
0.0670391061453
0.0204081632653
0.0300429184549
0.0170212765957
0.0419161676647
0.0125142207053
0.0171428571429
0.0229226361032
0.0236363636364
0.017094017094
0.0335570469799
0.0289855072464
0.0243902439024
0.0454545454545
0.044776119403
0.0634920634921
0.0392156862745
0.0857142857143
0.0576923076923
0.0568181818182
0.078431372549
0.0297872340426
0.046511627907
0.0769230769231
0.0769230769231
0.0806451612903
0.0384615384615
0.0774193548387
0.0497737556561
0.0398009950249
0.0295138888889
0.0219512195122
0.013037809648
0.011315417256
0.0553359683794
0.048
0.0689655172414
0.0221774193548
0.0140105078809
0.0413223140496
0.0279069767442
0.0972222222222
0.0352941176471
0.0641975308642
0.0340136054422
0.0578512396694
0.0241379310345
0.0193370165746
0.027397260274
0.0967741935484
0.0833333333333
0.0779220779221
0.078431372549
0.0701754385965
0.0720720720721
0.0402684563758
0.051724137931
0.0384615384615
0.0237068965517
0.0238095238095
0.040404040404
0.0316091954023
0.0185185185185
0.0242537313433
0.0209205020921
0.075
0.030534351145
0.0234375
0.033734939759
0.0169851380042
0.0526315789474
0.111111111111
0.0496453900709
0.089552238806
0.0660377358491
0.0536912751678
0.075
0.0769230769231
0.0909090909091
0.1
0.0714285714286
0.0228136882129
0.0833333333333
0.0909090909091
0.0349344978166
0.5
0.08
0.0473684210526
0.010650887574
0.0139130434783
0.0201117318436
0.0183783783784
0.0217155266015
0.0185546875
0.015947467167
0.0406504065041
0.0372670807453
0.0223880597015
0.0183189655172
0.0194672131148
0.0218470705065
0.0145190562613
0.037037037037
0.0223123732252
0.0107317073171
0.0185922974768
0.015625
0.023166023166
0.0238532110092
0.0274914089347
0.0408163265306
0.0257142857143
0.0236111111111
0.0202247191011
0.0160295930949
0.0185185185185
0.0216647662486
0.0263157894737
0.0224719101124
0.0233393177738
0.023598820059
0.0195227765727
0.0890410958904
0.0106761565836
0.0247933884298
0.0304182509506
0.021645021645
0.0795847750865
0.0515463917526
0.037037037037
0.0440414507772
0.079754601227
0.016592920354
0.0101237345332
0.045045045045
0.0324324324324
0.0382978723404
0.0413223140496
0.0287356321839
0.0714285714286
0.0575221238938
0.0886075949367
0.0481099656357
0.0538461538462
0.0325077399381
0.0277392510402
0.0819672131148
0.0340909090909
0.0115606936416
0.0136054421769
0.0161725067385
0.0381679389313
0.0769230769231
0.0152979066023
0.0220994475138
0.0102264426589
0.032967032967
0.0342857142857
0.0220588235294
0.0510204081633
0.0140388768898
0.0251177394035
0.0250569476082
0.0353535353535
0.0134952766532
0.0116033755274
0.0232558139535
0.0112994350282
0.0153452685422
0.0179640718563
0.0434782608696
0.0384615384615
0.0727272727273
0.0714285714286
0.0975609756098
0.0952380952381
0.0806451612903
0.09375
0.0547945205479
0.0869565217391
0.0963855421687
0.0535714285714
0.0506329113924
0.0441988950276
0.0454545454545
0.0378378378378
0.0292397660819
0.0406976744186
0.0290697674419
0.09
0.0697674418605
0.0628571428571
0.0645161290323
0.0304568527919
0.0608695652174
0.0512820512821
0.0218579234973
0.0281690140845
0.0666666666667
0.043956043956
0.0261627906977
0.0522388059701
0.04
0.0511363636364
0.0847457627119
0.0819672131148
0.0579710144928
0.089552238806
0.0795454545455
0.0666666666667
0.0672268907563
0.0166358595194
0.0222222222222
0.036496350365
0.0346534653465
0.0873786407767
0.0579710144928
0.0503597122302
0.0516129032258
0.0645161290323
0.0552486187845
0.0384615384615
0.053164556962
0.0275862068966
0.0287009063444
0.0314960629921
0.0214285714286
0.0148514851485
0.021021021021
0.0183486238532
0.0215264187867
0.0161616161616
0.511904761905
0.0418604651163
0.0397350993377
0.0518518518519
0.0444444444444
0.0264900662252
0.0357142857143
0.0652173913043
0.0284237726098
0.0509554140127
0.0326086956522
0.016
0.0752941176471
0.0194647201946
0.0833333333333
0.0708661417323
0.0592105263158
0.0459770114943
0.08
0.0387596899225
0.0656934306569
0.0184049079755
0.025
0.034965034965
0.0325203252033
0.0769230769231
0.0526315789474
0.030701754386
0.0444444444444
0.0857142857143
0.0625
0.0882352941176
0.075
0.0888888888889
0.0777777777778
0.0454545454545
0.0769230769231
0.015625
0.0294117647059
0.0216535433071
0.0292825768668
0.0132450331126
0.0116144018583
0.0104046242775
0.011655011655
0.0282776349614
0.0134952766532
0.0163111668758
0.0416666666667
0.01152368758
0.0555555555556
0.048
0.0496453900709
0.0685714285714
0.0459770114943
0.0336134453782
0.027397260274
0.0285714285714
0.0429447852761
0.0320699708455
0.0285714285714
0.0200445434298
0.0145560407569
0.0143369175627
0.0198555956679
0.0176767676768
0.05
0.0103234686855
0.0132625994695
0.0265306122449
0.0275229357798
0.0121580547112
0.0109289617486
0.0212527964206
0.0196078431373
0.0413793103448
0.0181818181818
0.0111801242236
0.0112016293279
0.0769230769231
0.0431034482759
0.0159453302961
0.018771331058
0.0320855614973
0.0588235294118
0.0102420856611
0.0571428571429
0.0405405405405
0.0980392156863
0.078125
0.0363636363636
0.0983606557377
0.08
0.0612244897959
0.078125
0.0441176470588
0.122448979592
0.0375939849624
0.0428571428571
0.0265486725664
0.034188034188
0.0255474452555
0.0390243902439
0.0309734513274
0.0313901345291
0.0631578947368
0.0900900900901
0.0825688073394
0.0294117647059
0.017130620985
0.0431654676259
0.0413793103448
0.0243902439024
0.0228013029316
0.0382165605096
0.0861244019139
0.0254237288136
0.0176470588235
0.0406504065041
0.014440433213
0.0215827338129
0.013986013986
0.0544871794872
0.0539906103286
0.0925110132159
0.051724137931
0.021978021978
0.106796116505
0.0516795865633
0.0588235294118
0.0816326530612
0.0549450549451
0.093023255814
0.0505050505051
0.0354609929078
0.024
0.0147637795276
0.0191570881226
0.0164190774042
0.0134048257373
0.0138888888889
0.020942408377
0.0127272727273
0.0555555555556
0.020618556701
0.0354609929078
0.0514018691589
0.038961038961
0.0236966824645
0.0645161290323
0.0967741935484
0.030303030303
0.0153846153846
0.0430463576159
0.0261627906977
0.0644171779141
0.0909090909091
0.0195227765727
0.011524822695
0.0113074204947
0.0168776371308
0.0357142857143
0.029702970297
0.0284023668639
0.0211267605634
0.0480769230769
0.05
0.0810810810811
0.0601503759398
0.0393700787402
0.0497237569061
0.0274725274725
0.0849056603774
0.0882352941176
0.0349344978166
0.0914634146341
0.05
0.078125
0.0819672131148
0.0606060606061
0.0454545454545
0.0549450549451
0.043795620438
0.0540540540541
0.0393700787402
0.0695652173913
0.0677966101695
0.09375
0.0508474576271
0.0339321357285
0.0769230769231
0.0857142857143
0.0219435736677
0.0869565217391
0.03125
0.0694444444444
0.0237154150198
0.0335570469799
0.0530973451327
0.0377358490566
0.0120558375635
0.0272727272727
0.0170731707317
0.0384615384615
0.0634920634921
0.025
0.0432098765432
0.0343137254902
0.0826086956522
0.0406779661017
0.0243902439024
0.0485436893204
0.0344827586207
0.0177777777778
0.0373134328358
0.0112517580872
0.0606060606061
0.0222222222222
0.0340909090909
0.0173267326733
0.0581395348837
0.028384279476
0.017667844523
0.0515463917526
0.0531914893617
0.06
0.0769230769231
0.0416666666667
0.0754716981132
0.0841121495327
0.0272727272727
0.0380952380952
0.0366972477064
0.0648148148148
0.0508474576271
0.0252100840336
0.0347826086957
0.0522388059701
0.0909090909091
0.015037593985
0.0225563909774
0.0359712230216
0.0666666666667
0.048951048951
0.0977443609023
0.06
0.0206896551724
0.05625
0.025974025974
0.0248447204969
0.0778443113772
0.0683229813665
0.046511627907
0.0326086956522
0.0298507462687
0.0313901345291
0.0221402214022
0.0289389067524
0.06
0.0392156862745
0.0461538461538
0.108108108108
0.0705882352941
0.0919540229885
0.0625
0.019801980198
0.042654028436
0.0227617602428
0.0318302387268
0.0130641330166
0.0137551581843
0.0127226463104
0.0125470514429
0.0134408602151
0.0116429495472
0.0316455696203
0.0212464589235
0.0132625994695
0.0133111480865
0.0103896103896
0.0167364016736
0.0111317254174
0.024064171123
0.013698630137
0.0528455284553
0.0183626625861
0.0100755667506
0.0378151260504
0.0165537998495
0.0113808801214
0.0109170305677
0.0114285714286
0.075
0.134615384615
0.0508474576271
0.0423728813559
0.0833333333333
0.0546875
0.0409836065574
0.0839694656489
0.0546875
0.0456852791878
0.0601503759398
0.0619834710744
0.0909090909091
0.0943396226415
0.0961538461538
0.0612244897959
0.0609756097561
0.0731707317073
0.0909090909091
0.0403225806452
0.0851063829787
0.0757575757576
0.047619047619
0.0392156862745
0.0408163265306
0.064
0.0444444444444
0.0886075949367
0.078125
0.0909090909091
0.0526315789474
0.0357142857143
0.0714285714286
0.0593220338983
0.08
0.0909090909091
0.0655737704918
0.031847133758
0.0545454545455
0.0933333333333
0.0510948905109
0.093023255814
0.0421052631579
0.0714285714286
0.0625
0.0677966101695
0.0718562874251
0.0684931506849
0.0674157303371
0.0128755364807
0.0826446280992
0.0632911392405
0.0416666666667
0.0609756097561
0.0833333333333
0.0289855072464
0.0769230769231
0.049504950495
0.0705882352941
0.470588235294
0.024064171123
0.0212765957447
0.454545454545
0.0154241645244
0.0777777777778
0.0348837209302
0.0769230769231
0.0470588235294
0.0470588235294
0.0112201963534
0.03
0.0467289719626
0.0641025641026
0.0316742081448
0.0984848484848
0.0342465753425
0.05
0.0962800875274
0.0727272727273
0.0697674418605
0.0379746835443
0.0360824742268
0.0775862068966
0.0862068965517
0.0618556701031
0.0116618075802
0.0259259259259
0.0199203187251
0.0150862068966
0.0135685210312
0.0106856634016
0.0125588697017
0.0121951219512
0.0133262260128
0.0103092783505
0.0199456029012
0.02331002331
0.0152151101784
0.0115340253749
0.0190217391304
0.022533022533
0.022120518688
0.0215773809524
0.0257759074171
0.0249490835031
0.0373134328358
0.0157194679565
0.0107372942019
0.0119971771348
0.0100574712644
0.0458333333333
0.0345679012346
0.0142653352354
0.0105448154657
0.0106213489113
0.0105805751492
0.0101966496723
0.012962962963
0.0138888888889
0.0175913396482
0.0120087336245
0.0147679324895
0.0222222222222
0.0118510158014
0.0872093023256
0.0311004784689
0.0181405895692
0.0290827740492
0.0315581854043
0.0237659963437
0.0241796200345
0.0323679727428
0.019512195122
0.018927444795
0.0200617283951
0.0344287949922
0.0162002945508
0.0245664739884
0.0408163265306
0.0170731707317
0.0216346153846
0.0452920143027
0.0147225368063
0.0160366552119
0.0222222222222
0.0247933884298
0.0272108843537
0.0530612244898
0.014598540146
0.0111214087118
0.0120545073375
0.0150602409639
0.0150234741784
0.032
0.0130597014925
0.026282853567
0.0137857900318
0.0114427860697
0.012858783008
0.0188034188034
0.0172413793103
0.0220750551876
0.0210526315789
0.015306122449
0.0222222222222
0.0187265917603
0.0185979971388
0.0104821802935
0.0118870728083
0.0106732348112
0.0181347150259
0.0188323917137
0.0103734439834
0.0112359550562
0.0150214592275
0.012426035503
0.014409221902
0.0125490196078
0.0145772594752
0.044502617801
0.0175097276265
0.0337837837838
0.0169491525424
0.0552380952381
0.0111111111111
0.0111265646732
0.0159059474412
0.0186697782964
0.0142737195634
0.01414427157
0.0281690140845
0.0335249042146
0.0191387559809
0.0118289353958
0.0248447204969
0.0133891213389
0.0361445783133
0.0208877284595
0.0873983739837
0.0240740740741
0.0228471001757
0.0202492211838
0.0128571428571
0.0141843971631
0.0275103163686
0.0195804195804
0.0143790849673
0.0187032418953
0.0138089758343
0.0111607142857
0.0104562737643
0.0151946818613
0.0118181818182
0.0166374781086
0.0120481927711
0.0108695652174
0.0219244823386
0.03
0.0100125156446
0.0199203187251
0.0257410296412
0.0607476635514
0.0284974093264
0.0216919739696
0.0224489795918
0.0272373540856
0.018771331058
0.0211180124224
0.0143964562569
0.0315217391304
0.0107238605898
0.0219702338767
0.0126422250316
0.0116959064327
0.0166089965398
0.0129198966408
0.0126666666667
0.0120705663881
0.0122448979592
0.013147082991
0.012676056338
0.0142857142857
0.0114666666667
0.0112415688234
0.0116226071103
0.0157106320789
0.0141435306443
0.01026957638
0.0190735694823
0.0110497237569
0.0115911485774
0.0216962524655
0.020964360587
0.0101302460203
0.0110775427996
0.0196078431373
0.0141700404858
0.0714285714286
0.0352303523035
0.0111199364575
0.0540540540541
0.46875
0.0411764705882
0.0204081632653
0.0105871029836
0.0138528138528
0.013698630137
0.0142180094787
0.0138408304498
0.0125195618153
0.0254777070064
0.0149051490515
0.0170031880978
0.0143198090692
0.0521327014218
0.0324129651861
0.0132530120482
0.0192307692308
0.0204724409449
0.0173745173745
0.0217864923747
0.0320366132723
0.0539682539683
0.0210016155089
0.0218579234973
0.0704225352113
0.0751445086705
0.0617283950617
0.0877192982456
0.0172185430464
0.0134048257373
0.0140186915888
0.0138376383764
0.0159574468085
0.0136842105263
0.0106382978723
0.0389863547758
0.0156862745098
0.0141083521445
0.0131578947368
0.0160075329567
0.0161290322581
0.0106477373558
0.0112464854733
0.0101979604079
0.0224032586558
0.0127175368139
0.0235849056604
0.0190579907433
0.0110782865583
0.0300586510264
0.0158831003812
0.0125184094256
0.0139737991266
0.027397260274
0.0125482625483
0.0160608622147
0.0118694362018
0.0327868852459
0.0262172284644
0.0226500566251
0.0241935483871
0.0130825838103
0.0656934306569
0.0190369540873
0.0132625994695
0.0207852193995
0.0116402116402
0.0103211009174
0.0258964143426
0.020618556701
0.0111464968153
0.0105118829982
0.0171579410471
0.0184899845917
0.015243902439
0.0128755364807
0.0141987829615
0.0135396518375
0.0125885129819
0.0130869899923
0.0100610851599
0.0151248680971
0.0750670241287
0.0180288461538
0.0212609970674
0.036036036036
0.0404411764706
0.0116448326055
0.015881147541
0.0285714285714
0.0110062893082
0.0163265306122
0.0131752305665
0.0261437908497
0.0122410546139
0.0380434782609
0.0187265917603
0.0223880597015
0.0380952380952
0.0144787644788
0.0133779264214
0.0531914893617
0.0169779286927
0.0193266832918
0.0127478753541
0.0172786177106
0.0112079701121
0.0283224400871
0.0105263157895
0.021186440678
0.0237797246558
0.0108262108262
0.0170648464164
0.0124869927159
0.013639626705
0.0258278145695
0.0102236421725
0.0248565965583
0.0116995073892
0.0152346130408
0.0203106332139
0.0185873605948
0.0354957160343
0.0152505446623
0.0120481927711
0.0134340890008
0.0103181427343
0.0164705882353
0.0277777777778
0.0176991150442
0.0311926605505
0.0262237762238
0.0136674259681
0.0393700787402
0.0106924643585
0.0862068965517
0.0270935960591
0.0197486535009
0.024077046549
0.0232558139535
0.015015015015
0.0239348158207
0.0459770114943
0.0720390720391
0.0117878192534
0.0510948905109
0.05
0.0789473684211
0.0192592592593
0.0189873417722
0.0779220779221
0.0760869565217
0.0165864098448
0.0526315789474
0.066265060241
0.013662013662
0.0294117647059
0.0374149659864
0.0449275362319
0.0532060027285
0.0537634408602
0.025641025641
0.0919540229885
0.0186092066601
0.0707070707071
0.0100057175529
0.0333796940195
0.0500658761528
0.0275423728814
0.0223123732252
0.0243902439024
0.0281195079086
0.0198555956679
0.0217076700434
0.0133657351154
0.0343511450382
0.0114394661582
0.04329004329
0.0221674876847
0.0735294117647
0.0182370820669
0.0496613995485
0.0512820512821
0.0364806866953
0.0261707988981
0.0270635994587
0.034188034188
0.0147928994083
0.0952380952381
0.0537634408602
0.0346820809249
0.0324324324324
0.0495867768595
0.021164021164
0.0691244239631
0.017094017094
0.025641025641
0.0204081632653
0.0314136125654
0.0384615384615
0.0357142857143
0.0493827160494
0.0689655172414
0.0510204081633
0.0625
0.0694444444444
0.0819672131148
0.04
0.0645161290323
0.0744680851064
0.0151260504202
0.0419512195122
0.012936610608
0.010101010101
0.0107430617726
0.0157977883096
0.025389025389
0.013816925734
0.0133451957295
0.0131810193322
0.0281690140845
0.0135379061372
0.0347826086957
0.0131362889984
0.0111464968153
0.0125588697017
0.0112089671737
0.0120675784393
0.0166666666667
0.0101317122594
0.0221932114883
0.0182002022245
0.0115473441109
0.0157480314961
0.0100200400802
0.0260521042084
0.0417193426043
0.016632016632
0.011879049676
0.0685413005272
0.0121107266436
0.0325
0.0419708029197
0.0446735395189
0.0146341463415
0.0365853658537
0.0394736842105
0.0658978583196
0.0176848874598
0.0177514792899
0.0148619957537
0.0236686390533
0.0155210643016
0.0462107208872
0.0145395799677
0.0138696255201
0.0112540192926
0.0153550863724
0.0323529411765
0.0283975659229
0.0142566191446
0.0181818181818
0.0360576923077
0.0149253731343
0.025
0.0205128205128
0.0148305084746
0.0215633423181
0.0180586907449
0.0162037037037
0.0285035629454
0.0605095541401
0.04
0.0253521126761
0.0758426966292
0.0161290322581
0.0180995475113
0.015625
0.0157894736842
0.024115755627
0.016717325228
0.0176151761518
0.0164974619289
0.0724637681159
0.0231362467866
0.0387323943662
0.0894568690096
0.0204081632653
0.0367647058824
0.0178861788618
0.0204545454545
0.0185676392573
0.0171428571429
0.0189873417722
0.016
0.0364464692483
0.036036036036
0.0698689956332
0.0307692307692
0.0227790432802
0.09375
0.027027027027
0.0225988700565
0.0171821305842
0.0380434782609
0.0758620689655
0.0206489675516
0.0139534883721
0.0838323353293
0.0216049382716
0.0344827586207
0.0271002710027
0.0206611570248
0.0677966101695
0.0143540669856
0.0673758865248
0.0819672131148
0.0330578512397
0.0880503144654
0.0441176470588
0.0384615384615
0.0204081632653
0.0263157894737
0.0241935483871
0.0363636363636
0.0348258706468
0.0487804878049
0.019801980198
0.0180995475113
0.0248226950355
0.0279329608939
0.0118483412322
0.0172413793103
0.0171821305842
0.0645161290323
0.0166666666667
0.09375
0.0183727034121
0.103896103896
0.0139275766017
0.0369318181818
0.0396825396825
0.0606060606061
0.0191256830601
0.0416666666667
0.0695187165775
0.0662251655629
0.0388888888889
0.0238473767886
0.0666666666667
0.010152284264
0.0136239782016
0.0132450331126
0.0112781954887
0.0106257378985
0.0459363957597
0.0101325019486
0.0103305785124
0.011744966443
0.01125
0.0107454667562
0.0583501006036
0.0225035161744
0.01125
0.0241286863271
0.0176470588235
0.0193308550186
0.0163505559189
0.013649851632
0.0219178082192
0.019305019305
0.0142180094787
0.0152505446623
0.0142348754448
0.0525568181818
0.0265625
0.0213114754098
0.0169779286927
0.0123266563945
0.0198473282443
0.0177777777778
0.015911872705
0.0212765957447
0.0134589502019
0.0110236220472
0.0234113712375
0.0116009280742
0.0185979971388
0.0142045454545
0.0102564102564
0.0214424951267
0.0113378684807
0.0170132325142
0.012987012987
0.0185950413223
0.0357142857143
0.0104562737643
0.0151843817787
0.0111524163569
0.0124653739612
0.0123609394314
0.0261845386534
0.0127659574468
0.0152990264256
0.0224719101124
0.0206611570248
0.044235924933
0.010101010101
0.0186999109528
0.0106870229008
0.038202247191
0.0148148148148
0.0112233445567
0.014301430143
0.0128342245989
0.0154320987654
0.010158013544
0.0125
0.010101010101
0.0133729569094
0.0104493207941
0.0248447204969
0.0487540628386
0.0131147540984
0.0765550239234
0.0118168389956
0.0125786163522
0.0122807017544
0.0218579234973
0.0206022187005
0.0179487179487
0.0151006711409
0.023185483871
0.0174081237911
0.0205992509363
0.0148148148148
0.0169491525424
0.026455026455
0.0220588235294
0.0130874479477
0.0627450980392
0.0426229508197
0.0422077922078
0.0431266846361
0.0382653061224
0.0569306930693
0.0261904761905
0.027972027972
0.0385487528345
0.0589473684211
0.024948024948
0.0281690140845
0.0688976377953
0.0408921933086
0.0224719101124
0.049001814882
0.0193321616872
0.0381426202322
0.0236220472441
0.0341753343239
0.0382978723404
0.0232240437158
0.0296495956873
0.0334190231362
0.0218508997429
0.0184729064039
0.0496453900709
0.0234375
0.0308370044053
0.0195016251354
0.0182992465016
0.0366108786611
0.0465587044534
0.025390625
0.0342530922931
0.0340586565752
0.0410065237651
0.0611677479147
0.0247349823322
0.0277056277056
0.0205303678358
0.0431947840261
0.0474777448071
0.0482295482295
0.0336680448907
0.0472103004292
0.0753138075314
0.0905511811024
0.0385964912281
0.0632911392405
0.045045045045
0.041782729805
0.0904255319149
0.0394088669951
0.0443925233645
0.0444964871194
0.0574712643678
0.0353982300885
0.0497835497835
0.0384615384615
0.0362473347548
0.054
0.049115913556
0.0326923076923
0.0285171102662
0.045197740113
0.0374531835206
0.093984962406
0.0372439478585
0.0408163265306
0.0367647058824
0.0393996247655
0.0359066427289
0.104504504505
0.0440366972477
0.0303571428571
0.0392156862745
0.0529100529101
0.0558464223386
0.0404217926186
0.0307692307692
0.0285714285714
0.0298507462687
0.027868852459
0.0661290322581
0.0489731437599
0.0503144654088
0.105015673981
0.0355486862442
0.0353846153846
0.0267857142857
0.0280649926145
0.0310192023634
0.0709010339734
0.0321167883212
0.0290697674419
0.0271816881259
0.0328102710414
0.0650636492221
0.0296610169492
0.0451436388509
0.0376850605653
0.0388739946381
0.0309555854643
0.0227272727273
0.0348058902276
0.0412234042553
0.0500658761528
0.0270967741935
0.0656370656371
0.025641025641
0.056050955414
0.0315656565657
0.0538847117794
0.0248756218905
0.0395061728395
0.0293757649939
0.0294117647059
0.0294478527607
0.0281517747858
0.0328467153285
0.0230303030303
0.0404761904762
0.0261282660333
0.0292740046838
0.0932584269663
0.0312151616499
0.0267558528428
0.0318681318681
0.0662323561346
0.02383531961
0.0267379679144
0.0235546038544
0.0275423728814
0.0243128964059
0.0420609884332
0.0189075630252
0.0187891440501
0.025
0.0294117647059
0.016548463357
0.0578158458244
0.0320855614973
0.0118918918919
0.0111902339776
0.0112540192926
0.0133136094675
0.0147058823529
0.0134874759152
0.0179856115108
0.0207468879668
0.0126262626263
0.0232558139535
0.0518518518519
0.0294117647059
0.0315398886827
0.0381679389313
0.043795620438
0.0362903225806
0.0475746268657
0.0262008733624
0.031746031746
0.539682539683
0.0239726027397
0.0139064475348
0.0103092783505
0.0307692307692
0.0535714285714
0.0247933884298
0.0142857142857
0.0574712643678
0.0184210526316
0.0216216216216
0.0689655172414
0.0769230769231
0.0182926829268
0.020725388601
0.029702970297
0.0505050505051
0.0769230769231
0.0833333333333
0.0740740740741
0.0324675324675
0.0909090909091
0.0892857142857
0.1
0.0645161290323
0.03125
0.0444444444444
0.0301204819277
0.0162601626016
0.0571428571429
0.0441988950276
0.0612244897959
0.0537634408602
0.0779220779221
0.0877192982456
0.0471698113208
0.0423728813559
0.0535714285714
0.0255319148936
0.0444444444444
0.0869565217391
0.0672268907563
0.0789473684211
0.0869565217391
0.0862068965517
0.0634920634921
0.0434782608696
0.0169491525424
0.0625
0.0705882352941
0.0459770114943
0.093023255814
0.0655737704918
0.0746268656716
0.0603448275862
0.0769230769231
0.0632911392405
0.049504950495
0.0306748466258
0.0352112676056
0.0337552742616
0.03
0.271844660194
0.0714285714286
0.051724137931
0.0479452054795
0.0454545454545
0.0487804878049
0.0602409638554
0.0223463687151
0.0467289719626
0.0358974358974
0.0165289256198
0.0342465753425
0.0253623188406
0.0566037735849
0.05
0.0545454545455
0.0365853658537
0.0424242424242
0.0666666666667
0.0657894736842
0.036496350365
0.0178571428571
0.0413793103448
0.0143884892086
0.0416666666667
0.0279069767442
0.029484029484
0.0512820512821
0.0301204819277
0.0568181818182
0.0342857142857
0.0231213872832
0.0674157303371
0.0334928229665
0.0367647058824
0.0151843817787
0.0418848167539
0.0128205128205
0.0689655172414
0.0182094081942
0.0366972477064
0.012213740458
0.0174966352624
0.0102135561746
0.0201931518876
0.0105660377358
0.011243851019
0.0939597315436
0.0366666666667
0.0134453781513
0.0198863636364
0.0314136125654
0.0174346201743
0.0107913669065
0.020202020202
0.0108910891089
0.0176817288802
0.0115495668912
0.0118505013674
0.0106951871658
0.0115452930728
0.0212765957447
0.0100874243443
0.0129469790382
0.0123626373626
0.0123456790123
0.0535307517084
0.0155925155925
0.0142566191446
0.0164917541229
0.0143229166667
0.014880952381
0.0130095403296
0.0147559591373
0.011917659805
0.0626801152738
0.0165061898212
0.0108991825613
0.0153583617747
0.0113537117904
0.0104529616725
0.0115967885816
0.0115452930728
0.0157894736842
0.026455026455
0.0167597765363
0.0119435396308
0.0152542372881
0.0114665057333
0.0204808548531
0.0138888888889
0.0103746397695
0.03900390039
0.0124223602484
0.0152963671128
0.010460251046
0.0104226983208
0.0557090239411
0.0128514056225
0.0151836158192
0.0101419878296
0.0117267663442
0.0108646446356
0.0108153078203
0.0118721461187
0.0126429861529
0.0112554112554
0.0283018867925
0.0116525423729
0.010441226002
0.010844306739
0.0126282557222
0.0136268343816
0.0113636363636
0.0122236671001
0.0166666666667
0.0106382978723
0.0138483965015
0.0151679306609
0.0159036144578
0.0299184043518
0.0141791044776
0.0790051207023
0.0117044623263
0.010885341074
0.0145429362881
0.0160153747598
0.0114068441065
0.0593379138039
0.0151856017998
0.0122340425532
0.0131578947368
0.0132288094072
0.0108374384236
0.0113798008535
0.0110294117647
0.0265765765766
0.0521855486173
0.0143291359097
0.0222312045271
0.0120165227187
0.018320610687
0.0141176470588
0.0964125560538
0.0140949554896
0.0179977502812
0.0121722846442
0.0285714285714
0.0104302477184
0.0529953917051
0.0165505226481
0.0706874189364
0.0119453924915
0.0159607120933
0.0447321954091
0.0106707317073
0.0102003642987
0.0146818923328
0.0116217643951
0.0113808801214
0.025614218505
0.0107452339688
0.0247368421053
0.0115172759139
0.0101744186047
0.0111679851094
0.0109051254089
0.0131885182312
0.011801242236
0.0105191720394
0.0159846547315
0.0159189580318
0.0124255759772
0.0120333230484
0.0371835443038
0.0250368188513
0.0224171539961
0.0141531322506
0.0339130434783
0.0121626757887
0.0101712154602
0.0387755102041
0.0232558139535
0.0192864030858
0.0206648697215
0.0206572769953
0.0301921317475
0.0267527675277
0.0263605442177
0.0202464788732
0.0178861788618
0.0192475940507
0.0275459098497
0.0176470588235
0.0213114754098
0.0370675453048
0.0277296360485
0.0193236714976
0.0254934210526
0.0349761526232
0.0182975338107
0.0205592105263
0.03359375
0.0162601626016
0.0184590690209
0.0335463258786
0.0299448384555
0.0211161387632
0.0234558248632
0.0196671709531
0.0204700530705
0.0659670164918
0.0162412993039
0.0284218399402
0.0209737827715
0.0187050359712
0.0246085011186
0.0191881918819
0.0286738351254
0.0238267148014
0.0269312544295
0.0227106227106
0.0148619957537
0.0420899854862
0.0252100840336
0.0248756218905
0.0168895144265
0.0253256150507
0.0412011173184
0.0201884253028
0.0214681440443
0.0235531628533
0.0182802979012
0.0306193458594
0.021438450899
0.019436997319
0.0236875800256
0.0207468879668
0.014983713355
0.0444002650762
0.0176870748299
0.028664495114
0.0213760855043
0.0306666666667
0.0227560050569
0.0295857988166
0.0146252285192
0.0204460966543
0.0302839116719
0.0174563591022
0.0179425837321
0.0179566563467
0.0339805825243
0.0157710280374
0.0567583382095
0.021801491681
0.0163455925277
0.0241318422602
0.0217142857143
0.0156431054461
0.0279883381924
0.0146455770357
0.0155815247635
0.0158460667799
0.0141843971631
0.0335718216841
0.015503875969
0.0432489451477
0.0217391304348
0.0146898803047
0.0137493389741
0.0131779016726
0.0140421263791
0.016008004002
0.0132612966601
0.0183392766174
0.0207594936709
0.0139095876801
0.0191740412979
0.021597187343
0.0181124880839
0.014691943128
0.0179176755448
0.0126939351199
0.0165798199905
0.0151724137931
0.0140581068416
0.0203327171904
0.015478424015
0.0187140115163
0.0175438596491
0.0187385740402
0.0200093066543
0.0176550475328
0.0251601097896
0.0137425561154
0.0231502496596
0.015047879617
0.0213160333642
0.0211565585331
0.0148906468125
0.0132844709116
0.0151043980453
0.0129348795718
0.0207207207207
0.0326136885622
0.0142475512021
0.0145953118089
0.021710234825
0.0203090507726
0.0186470078057
0.0269553689792
0.0212489158716
0.015652173913
0.0178183398522
0.0146931719965
0.0251384746485
0.0228070175439
0.017895185343
0.0429774036331
0.0208796090626
0.0191082802548
0.0203045685279
0.0134665508254
0.013025210084
0.01601348504
0.0199152542373
0.0181896925076
0.0121186794818
0.0157379838367
0.0144867549669
0.0123966942149
0.0145423438837
0.0148179508891
0.0138945647732
0.0189612530915
0.0180921052632
0.0222312045271
0.014712245781
0.0189300411523
0.0173841059603
0.0212505108296
0.0194214876033
0.0135356849877
0.0125260960334
0.0192465192465
0.0191158900836
0.0152671755725
0.0144115292234
0.0155192996419
0.0158069883527
0.0212683681361
0.0138888888889
0.013036809816
0.0166261151663
0.0155068078669
0.0164877300613
0.0130939019828
0.0117001828154
0.0152757078987
0.0113594723342
0.0180080852628
0.0173850054328
0.0284153005464
0.0105878057685
0.0130305286672
0.0395125553914
0.0232300884956
0.0395968322534
0.0196078431373
0.0198412698413
0.0114345114345
0.0122634898388
0.0183581572567
0.0189786059351
0.0134323082361
0.0217162872154
0.0128785241907
0.0188098495212
0.0134066689584
0.0155510480054
0.0161398789509
0.0116047745358
0.0127345844504
0.0166214382632
0.015017956252
0.0130043347783
0.0189117451891
0.0121430915655
0.0114566284779
0.0103359173127
0.0111429481057
0.0189466923571
0.0137468030691
0.0187036439858
0.0133986928105
0.0158041524636
0.0140056022409
0.0233281493002
0.0187032418953
0.016
0.0136570561457
0.0131820968731
0.0167564332735
0.01876759462
0.0123493975904
0.0108466405544
0.0163301662708
0.0134105455654
0.0117944397641
0.0119182746879
0.0134907251265
0.0159262363789
0.0268714011516
0.0114429249232
0.0107290233838
0.0187347271246
0.0104055496265
0.0105340519353
0.0102552415679
0.0126779359431
0.0168212206168
0.0117035110533
0.0145784914431
0.0122186495177
0.0167698143342
0.0143540669856
0.0150726226363
0.0114023591088
0.0133982947625
0.0101781170483
0.0106007067138
0.014880952381
0.0144032921811
0.0294695481336
0.014880952381
0.0168067226891
0.0149953139644
0.0121422376409
0.0215827338129
0.0126467931346
0.0168439716312
0.11652173913
0.0296784830998
0.0118764845606
0.0162412993039
0.0127084988086
0.0119712689545
0.025641025641
0.0267727930535
0.0242165242165
0.0113074204947
0.0132960111966
0.0103519668737
0.0153846153846
0.0122365737593
0.0271668822768
0.0216216216216
0.0106453759148
0.0281501340483
0.0116429495472
0.0187338501292
0.0111695137976
0.0116807268008
0.0292807129217
0.0133928571429
0.0112429731418
0.0224985198342
0.012084592145
0.0217519106408
0.0195961995249
0.0157004830918
0.0314875135722
0.0102156640182
0.0520487264673
0.0112170499159
0.0133185349612
0.0197018104366
0.0153601694915
0.0116094986807
0.0150103519669
0.0129802699896
0.0147757255937
0.010863942059
0.0512820512821
0.0242268041237
0.0188008130081
0.0103908955962
0.0151441133366
0.0518262586377
0.0116448326055
0.0175353141744
0.0107843137255
0.0105414470532
0.0219047619048
0.0123164377072
0.030748049564
0.0158066015807
0.015306122449
0.0119981541301
0.0362671384343
0.0127865961199
0.0101410934744
0.0200085142614
0.0158597662771
0.013174145739
0.0334947538337
0.0128876359243
0.0118609406953
0.0115118956255
0.0296643247463
0.0122585438336
0.0128893662728
0.0120141342756
0.0153363541304
0.0158021298523
0.0100125156446
0.0198555956679
0.0217391304348
0.0354391371341
0.025993883792
0.0180412371134
0.020757020757
0.020618556701
0.025988700565
0.0264672036824
0.0297356828194
0.0105646630237
0.0156877052171
0.0114848236259
0.0186092066601
0.0131004366812
0.0278246205734
0.0154109589041
0.0130293159609
0.0119047619048
0.0104456824513
0.0136897001304
0.0110192837466
0.0150470219436
0.0184478371501
0.018250471995
0.0118453865337
0.012962962963
0.0162259615385
0.012865497076
0.0109258194365
0.0132107983917
0.0253235790658
0.0102798400914
0.0296918767507
0.0127565169163
0.021115322144
0.0113871635611
0.0152551288795
0.0105152471083
0.0127291242363
0.0605459057072
0.0165413533835
0.0107790298873
0.016548463357
0.0131259115216
0.0468528159016
0.0100227790433
0.0160453043889
0.0107076350093
0.0167042889391
0.0111635895234
0.0126903553299
0.0100656455142
0.0238500851789
0.0197509660799
0.0130471380471
0.0227077977721
0.0116424116424
0.0104777870914
0.0172768408063
0.0114519427403
0.0109135004042
0.0176891230711
0.0120481927711
0.0126995645864
0.0326388888889
0.0106822880772
0.0111040609137
0.0184317400812
0.0153172866521
0.0103305785124
0.0161527165932
0.0234159779614
0.0156626506024
0.0215311004785
0.0112704918033
0.010582010582
0.0132689987937
0.0115273775216
0.0168224299065
0.0595238095238
0.0512820512821
0.06
0.0789473684211
0.0877192982456
0.0681818181818
0.0406504065041
0.0445859872611
0.0394736842105
0.0355329949239
0.0183333333333
0.0438596491228
0.0431654676259
0.0333333333333
0.0252600297177
0.0253968253968
0.0310559006211
0.0277185501066
0.0537313432836
0.0293685756241
0.0248587570621
0.0119047619048
0.0206327372765
0.0128824476651
0.0376175548589
0.0429447852761
0.0135823429542
0.05
0.0579710144928
0.0789473684211
0.0909090909091
0.121951219512
0.0340909090909
0.029702970297
0.0297619047619
0.07
0.28125
0.0526315789474
0.0341207349081
0.030701754386
0.0158102766798
0.0645161290323
0.0262390670554
0.028901734104
0.0265486725664
0.0625
0.04375
0.0909090909091
0.0740740740741
0.0894941634241
0.0340425531915
0.0336134453782
0.0875
0.0898876404494
0.0408163265306
0.0546875
0.0695652173913
0.0568181818182
0.0408163265306
0.0943396226415
0.0909090909091
0.0531914893617
0.0862068965517
0.155555555556
0.0566037735849
0.0294117647059
0.0571428571429
0.047619047619
0.0694444444444
0.0277777777778
0.0515463917526
0.0231213872832
0.0873786407767
0.0926640926641
0.0772200772201
0.0932835820896
0.0706713780919
0.0754716981132
0.0643274853801
0.0879396984925
0.0864440078585
0.0576923076923
0.0537634408602
0.0680628272251
0.0742358078603
0.0585774058577
0.0738007380074
0.0428134556575
0.0540540540541
0.0564971751412
0.0447368421053
0.0493827160494
0.0328542094456
0.031654676259
0.0869565217391
0.0295454545455
0.0117647058824
0.077519379845
0.0761904761905
0.0837988826816
0.0842105263158
0.0824742268041
0.0765550239234
0.0697674418605
0.0787037037037
0.0753138075314
0.089552238806
0.0671641791045
0.0763888888889
0.0830670926518
0.0565476190476
0.0634573304158
0.0615114235501
0.0408525754885
0.0626959247649
0.0697674418605
0.0747126436782
0.0837696335079
0.0867346938776
0.0845070422535
0.0805687203791
0.0825688073394
0.0765957446809
0.0756302521008
0.0912547528517
0.0666666666667
0.0679245283019
0.0694444444444
0.0838709677419
0.0666666666667
0.0650154798762
0.0825688073394
0.0952380952381
0.0626349892009
0.0515021459227
0.0395480225989
0.0430107526882
0.0689045936396
0.0735524256651
0.0776255707763
0.0650406504065
0.0614754098361
0.0763888888889
0.0766666666667
0.0538720538721
0.0633333333333
0.0503144654088
0.0805970149254
0.0688622754491
0.0557103064067
0.050139275766
0.0392156862745
0.052738336714
0.0671875
0.0578512396694
0.0301003344482
0.03125
0.0225563909774
0.0205278592375
0.08
0.0819672131148
0.04
0.0863636363636
0.0502092050209
0.0723404255319
0.0495867768595
0.0474308300395
0.0433070866142
0.0418118466899
0.0357142857143
0.0422535211268
0.047619047619
0.0456026058632
0.0507936507937
0.0380710659898
0.0894736842105
0.0481012658228
0.0649350649351
0.0367647058824
0.0307692307692
0.035413153457
0.0224525043178
0.0184254606365
0.0141969831411
0.0239786856128
0.061135371179
0.0182072829132
0.023178807947
0.0882352941176
0.387640449438
0.0227272727273
0.0485436893204
0.0403726708075
0.0425055928412
0.0347648261759
0.0354330708661
0.0520446096654
0.0233333333333
0.027027027027
0.0235294117647
0.0172612197929
0.075117370892
0.0555555555556
0.0393442622951
0.0414012738854
0.044776119403
0.0606060606061
0.0487179487179
0.0279187817259
0.0285087719298
0.0506329113924
0.0440251572327
0.0284629981025
0.0459610027855
0.0751445086705
0.0552995391705
0.0413223140496
0.0445344129555
0.0486891385768
0.0449438202247
0.0769230769231
0.0351437699681
0.0581395348837
0.0290237467018
0.0413533834586
0.0701754385965
0.0561224489796
0.0509803921569
0.0563909774436
0.0428134556575
0.0376175548589
0.0682492581602
0.0692520775623
0.0398936170213
0.047263681592
0.0599647266314
0.0473684210526
0.0373443983402
0.0412979351032
0.0362116991643
0.0149625935162
0.0125184094256
0.0115074798619
0.0191339375629
0.0283363802559
0.0137931034483
0.0147194112236
0.0193548387097
0.0236966824645
0.0386266094421
0.0296610169492
0.0422535211268
0.0290456431535
0.0510638297872
0.0271739130435
0.0510638297872
0.0172413793103
0.0182291666667
0.0183823529412
0.0263157894737
0.0253807106599
0.0307692307692
0.0609756097561
0.0533333333333
0.048
0.0454545454545
0.0281690140845
0.0757575757576
0.019305019305
0.0746268656716
0.0571428571429
0.0246153846154
0.0136239782016
0.0549450549451
0.0581395348837
0.0980392156863
0.0327868852459
0.045871559633
0.0289256198347
0.0158013544018
0.031175059952
0.0444444444444
0.0602409638554
0.0209059233449
0.078431372549
0.0816326530612
0.101449275362
0.0992366412214
0.0576923076923
0.0128022759602
0.021897810219
0.0109409190372
0.0191570881226
0.0352422907489
0.049504950495
0.0188679245283
0.0214285714286
0.0210526315789
0.0135983263598
0.0136698212408
0.0879120879121
0.0240549828179
0.029490616622
0.0265780730897
0.027972027972
0.0208877284595
0.0346020761246
0.0351872871737
0.0136452241715
0.0405561993048
0.036231884058
0.0143129770992
0.0148026315789
0.0115416323166
0.0113052415211
0.0127186009539
0.0165165165165
0.0359138068635
0.0153172866521
0.012987012987
0.016835016835
0.048275862069
0.0175746924429
0.0103806228374
0.0503672612802
0.0160256410256
0.0138408304498
0.013201320132
0.0111111111111
0.0242587601078
0.0139616055846
0.016548463357
0.0226537216828
0.0212765957447
0.0816326530612
0.0666666666667
0.0555555555556
0.0355029585799
0.0769230769231
0.0918367346939
0.0609756097561
0.0201342281879
0.0254237288136
0.0352941176471
0.0263157894737
0.0354609929078
0.0163043478261
0.0340909090909
0.0339805825243
0.0217391304348
0.0480349344978
0.0491803278689
0.0740740740741
0.0162601626016
0.0117647058824
0.025641025641
0.0533333333333
0.0533807829181
0.0423076923077
0.0176056338028
0.036496350365
0.0540540540541
0.0818713450292
0.0814479638009
0.0444444444444
0.0107314317989
0.0923471569047
0.0919711129992
0.0200803212851
0.0116873630387
0.0137636449929
0.0153105861767
0.0272305909618
0.0103480714958
0.0491803278689
0.131147540984
0.0137684854666
0.031746031746
0.0486111111111
0.0388888888889
0.0110236220472
0.032
0.0190217391304
0.0209059233449
0.043956043956
0.0540540540541
0.0343137254902
0.0236486486486
0.0104575163399
0.032154340836
0.0226843100189
0.0166666666667
0.0422535211268
0.03003003003
0.0314685314685
0.0178970917226
0.0216306156406
0.0189873417722
0.029197080292
0.0219298245614
0.0152173913043
0.0282608695652
0.0139275766017
0.0235849056604
0.0203562340967
0.0508474576271
0.0115606936416
0.0172413793103
0.0144307856761
0.011862396204
0.0117122141662
0.013037809648
0.0526315789474
0.0317757009346
0.0532544378698
0.011013215859
0.0109243697479
0.0134228187919
0.011
0.0251630941286
0.0116383169203
0.0149384885764
0.0154411764706
0.0100574712644
0.0531135531136
0.0158501440922
0.0129032258065
0.0218228498074
0.0101936799185
0.0100908173562
0.0129390018484
0.0116533139111
0.0169491525424
0.0176565008026
0.0206896551724
0.0269058295964
0.0192307692308
0.0127504553734
0.0387409200969
0.0865384615385
0.0180055401662
0.0175438596491
0.0126984126984
0.0122905027933
0.0173745173745
0.0190677966102
0.0282071097372
0.0134545454545
0.0306445931666
0.0206655931294
0.0150276825732
0.0285781213399
0.0289984385456
0.0323913043478
0.0258799171843
0.0252100840336
0.0138050043141
0.0326884589726
0.0421484520701
0.0126857557086
0.0452830188679
0.0281837160752
0.0289891605747
0.0431093785829
0.0401988329371
0.0382070437567
0.0376864167674
0.0178571428571
0.0165094339623
0.0178217821782
0.0187891440501
0.026102610261
0.0121065375303
0.0231904427266
0.0143769968051
0.0116279069767
0.078431372549
0.0769230769231
0.0967741935484
0.0674157303371
0.0795454545455
0.0104166666667
0.0961538461538
0.0625
0.013698630137
0.0485436893204
0.0269058295964
0.0546875
0.048951048951
0.0402010050251
0.0615384615385
0.0575539568345
0.0629370629371
0.0980392156863
0.0943396226415
0.0833333333333
0.0459183673469
0.0436507936508
0.0704225352113
0.0164705882353
0.036231884058
0.0631067961165
0.028
0.030303030303
0.0459770114943
0.0416666666667
0.026455026455
0.0282258064516
0.0213414634146
0.0182926829268
0.0142095914742
0.0275862068966
0.0190476190476
0.0124777183601
0.0125899280576
0.0225563909774
0.0384615384615
0.0412844036697
0.0253411306043
0.0145454545455
0.0233393177738
0.0647482014388
0.0526315789474
0.0765550239234
0.0315789473684
0.0355987055016
0.0588235294118
0.0589254766031
0.0241935483871
0.0229226361032
0.0212464589235
0.0191226096738
0.0248756218905
0.0769230769231
0.093023255814
0.0590909090909
0.0653266331658
0.0140186915888
0.0112
0.0112640801001
0.010752688172
0.0314685314685
0.0209059233449
0.0201342281879
0.0108499095841
0.0250896057348
0.0315789473684
0.040625
0.0236220472441
0.010550996483
0.0119695321001
0.0314285714286
0.0503144654088
0.0531914893617
0.0355329949239
0.0552995391705
0.0390879478827
0.0428134556575
0.0233160621762
0.0227272727273
0.0110497237569
0.016632016632
0.0281690140845
0.0571428571429
0.036036036036
0.0357142857143
0.0267558528428
0.0221238938053
0.0203993055556
0.0315789473684
0.0227560050569
0.049504950495
0.0136208853575
0.010989010989
0.0672268907563
0.0261976047904
0.0136798905609
0.0249520153551
0.0440251572327
0.0239852398524
0.0293255131965
0.0490797546012
0.0181992337165
0.0105540897098
0.0686274509804
0.0672782874618
0.0163265306122
0.0263157894737
0.0101229211858
0.0466531440162
0.0138504155125
0.0744680851064
0.0294117647059
0.0165289256198
0.0295519542421
0.0125490196078
0.0133988387673
0.0644171779141
0.0512820512821
0.013369645952
0.0187265917603
0.0187919463087
0.0149253731343
0.0115789473684
0.0305418719212
0.0248015873016
0.0263157894737
0.0356798457088
0.0209854014599
0.0544593528019
0.0671641791045
0.0301406563965
0.0298034242232
0.078313253012
0.0939226519337
0.0375514403292
0.0260743602125
0.0607787274454
0.0189663347558
0.0161877782274
0.0314426633785
0.017082049846
0.100278551532
0.0712328767123
0.0513392857143
0.0575221238938
0.0303687635575
0.052734375
0.0288
0.0336906584992
0.0273381294964
0.0347826086957
0.037037037037
0.0267260579065
0.0305882352941
0.0146443514644
0.0124481327801
0.0106257378985
0.0117302052786
0.0122448979592
0.0126920507682
0.0116788321168
0.0114869176771
0.0105471324984
0.0106382978723
0.0192837465565
0.0185950413223
0.0169491525424
0.0166666666667
0.0747663551402
0.0263473053892
0.0116279069767
0.021164021164
0.0212765957447
0.0786516853933
0.0410256410256
0.0284463894967
0.042735042735
0.0724637681159
0.0625
0.0740740740741
0.0882352941176
0.0625
0.0841121495327
0.0487804878049
0.0214592274678
0.0729166666667
0.0757575757576
0.0933333333333
0.0752688172043
0.0333333333333
0.0314685314685
0.0612244897959
0.0461538461538
0.0339805825243
0.0147058823529
0.0434782608696
0.0555555555556
0.037037037037
0.027027027027
0.0238907849829
0.0311418685121
0.0980392156863
0.0292397660819
0.0117647058824
0.0654761904762
0.0658682634731
0.0547945205479
0.0864197530864
0.0423728813559
0.08
0.0192307692308
0.0414634146341
0.0125130344108
0.0246305418719
0.0251046025105
0.0144230769231
0.0241423125794
0.0412371134021
0.0378378378378
0.0459183673469
0.038202247191
0.0529953917051
0.0582329317269
0.0228013029316
0.038961038961
0.013024602026
0.0255591054313
0.056338028169
0.0887417218543
0.0167064439141
0.0193003618818
0.0130813953488
0.0108173076923
0.0173210161663
0.0189054726368
0.0138674884438
0.0144665461121
0.021978021978
0.0343053173242
0.0135593220339
0.0139949109415
0.0112612612613
0.0139318885449
0.0107238605898
0.0169204737733
0.0207336523126
0.0248138957816
0.0167865707434
0.0163599182004
0.0398550724638
0.0102915951973
0.014598540146
0.0261437908497
0.0300751879699
0.0148423005566
0.0467289719626
0.0333333333333
0.0564705882353
0.0523917995444
0.0731707317073
0.0392156862745
0.0323624595469
0.0955414012739
0.046875
0.0217821782178
0.0292598967298
0.0264900662252
0.0251256281407
0.036641221374
0.0210249671485
0.0172043010753
0.0165094339623
0.0119047619048
0.0118744698897
0.0349206349206
0.0238095238095
0.0160116448326
0.0128755364807
0.0142857142857
0.0275862068966
0.0530303030303
0.0534351145038
0.0265780730897
0.06
0.0155555555556
0.0491803278689
0.010752688172
0.0130890052356
0.0110565110565
0.154639175258
0.195804195804
0.210191082803
0.199004975124
0.253012048193
0.229074889868
0.261802575107
0.28
0.309090909091
0.116438356164
0.134920634921
0.153153153153
0.0124137931034
0.0189125295508
0.012987012987
0.0227617602428
0.0178817056396
0.0224719101124
0.0384615384615
0.013986013986
0.019801980198
0.0103270223752
0.0625
0.0471204188482
0.036036036036
0.0408163265306
0.0512820512821
0.0247524752475
0.046875
0.0545454545455
0.0211764705882
0.0215311004785
0.015625
0.0186721991701
0.0159574468085
0.031045751634
0.0228310502283
0.0181347150259
0.0615384615385
0.0721649484536
0.0775862068966
0.0505050505051
0.0843373493976
0.0681818181818
0.0980392156863
0.0892857142857
0.0561797752809
0.1
0.030303030303
0.0740740740741
0.0487804878049
0.0512820512821
0.0100921456779
0.0273069679849
0.0208333333333
0.0118505013674
0.012987012987
0.998870421172
0.0105042016807
0.0187244002341
0.0316139767055
0.015625
0.0177606177606
0.0961538461538
0.1
0.0666666666667
0.0330188679245
0.0284810126582
0.0421052631579
0.0208333333333
0.016393442623
0.025641025641
0.0646651270208
0.0177514792899
0.0177514792899
0.0441988950276
0.03125
0.0666666666667
0.0533333333333
0.0923076923077
0.0545454545455
0.0529801324503
0.0159574468085
0.0694444444444
0.0573770491803
0.0537634408602
0.0915492957746
0.0375939849624
0.0266666666667
0.0414201183432
0.045045045045
0.0372670807453
0.0583333333333
0.0408163265306
0.0403225806452
0.0769230769231
0.0806451612903
0.0210346787948
0.0700636942675
0.0232558139535
0.0619469026549
0.0304568527919
0.0459770114943
0.0151515151515
0.0226130653266
0.0141700404858
0.0197238658777
0.046511627907
0.0252100840336
0.0369230769231
0.0333333333333
0.0252707581227
0.0259259259259
0.0383631713555
0.0106888361045
0.0243445692884
0.0122511485452
0.0294659300184
0.022271714922
0.0284552845528
0.0140186915888
0.0137795275591
0.0625
0.0306748466258
0.0298913043478
0.029810298103
0.0140562248996
0.031847133758
0.0111835973905
0.0145631067961
0.0141176470588
0.0185528756957
0.0151843817787
0.0583941605839
0.0398671096346
0.063829787234
0.0127186009539
0.0158227848101
0.018691588785
0.0148619957537
0.015873015873
0.0295857988166
0.0172413793103
0.0144578313253
0.016713091922
0.0378151260504
0.0597014925373
0.0372881355932
0.0342679127726
0.0535714285714
0.0192893401015
0.0264317180617
0.0259291270527
0.0204334365325
0.0235767682576
0.0136674259681
0.0213333333333
0.0119521912351
0.020023557126
0.0186697782964
0.0253968253968
0.015763546798
0.016814159292
0.0109775222164
0.0138504155125
0.0146627565982
0.0275229357798
0.0595238095238
0.0438596491228
0.0405405405405
0.011396011396
0.0193298969072
0.0130624092888
0.0104166666667
0.046511627907
0.0141414141414
0.0171673819742
0.03125
0.031862745098
0.0198807157058
0.019801980198
0.0217391304348
0.0232558139535
0.093023255814
0.0315315315315
0.0779220779221
0.0522388059701
0.056
0.0823529411765
0.0754716981132
0.0571428571429
0.08
0.0794701986755
0.0492610837438
0.0428015564202
0.04296875
0.036303630363
0.0483870967742
0.0470219435737
0.0294117647059
0.0273822562979
0.0547945205479
0.0769230769231
0.0387096774194
0.0216718266254
0.0214067278287
0.0371621621622
0.041095890411
0.0287539936102
0.0666666666667
0.0263157894737
0.0116279069767
0.0144927536232
0.031847133758
0.0188235294118
0.025641025641
0.0243362831858
0.0443131462334
0.0130434782609
0.0114613180516
0.0573770491803
0.0169491525424
0.018648018648
0.0823529411765
0.0355029585799
0.0754716981132
0.0983606557377
0.089552238806
0.0422535211268
0.0769230769231
0.0289256198347
0.0171919770774
0.0182481751825
0.0177514792899
0.0264423076923
0.0244399185336
0.0241379310345
0.0309278350515
0.0294117647059
0.0434782608696
0.0521327014218
0.0369127516779
0.0260663507109
0.0247148288973
0.045871559633
0.0648148148148
0.0679611650485
0.047619047619
0.0414201183432
0.04375
0.08
0.089552238806
0.0581395348837
0.0508474576271
0.0251256281407
0.0714285714286
0.0508474576271
0.0309734513274
0.0359281437126
0.0555555555556
0.0272727272727
0.0819672131148
0.0704225352113
0.0806451612903
0.0346820809249
0.063829787234
0.0645161290323
0.0537634408602
0.0526315789474
0.0833333333333
0.056338028169
0.08
0.0689655172414
0.0975609756098
0.0714285714286
0.1
0.0634920634921
0.0526315789474
0.093023255814
0.0884955752212
0.0833333333333
0.0675675675676
0.0259067357513
0.0470588235294
0.04
0.0353634577603
0.0305206463196
0.0295748613678
0.0159817351598
0.0178571428571
0.0322580645161
0.046511627907
0.0292682926829
0.0569105691057
0.0745341614907
0.0481927710843
0.0331950207469
0.0183615819209
0.0119047619048
0.0119047619048
0.0543071161049
0.0177619893428
0.0152801358234
0.0305882352941
0.0315789473684
0.0320855614973
0.0819672131148
0.041958041958
0.06
0.0609756097561
0.047619047619
0.0555555555556
0.0851063829787
0.049504950495
0.0891089108911
0.0647482014388
0.048275862069
0.0149625935162
0.0375
0.0172413793103
0.0213414634146
0.0125588697017
0.0909090909091
0.0569306930693
0.0338983050847
0.023598820059
0.0132978723404
0.0276679841897
0.0101137800253
0.0182841068917
0.0290456431535
0.0252365930599
0.046875
0.0184049079755
0.0214797136038
0.0130293159609
0.0366972477064
0.0486891385768
0.016077170418
0.0326530612245
0.0821917808219
0.0648148148148
0.0540540540541
0.031007751938
0.0804597701149
0.0793650793651
0.0666666666667
0.0421686746988
0.0719424460432
0.0442477876106
0.0743243243243
0.0731707317073
0.010989010989
0.993506493506
1.0
1.0
1.0
1.0
0.98275862069
1.0
0.0535714285714
0.0648148148148
0.0579710144928
0.0441176470588
0.0555555555556
0.0516431924883
0.0418604651163
0.019512195122
0.0574162679426
0.0558375634518
0.0851063829787
0.0350877192982
0.129032258065
0.0769230769231
0.0576923076923
0.0952380952381
0.09375
