0.0409836065574
0.0839694656489
0.0546875
0.0456852791878
0.0601503759398
0.0619834710744
0.0909090909091
0.0943396226415
0.0961538461538
0.0612244897959
0.0609756097561
0.0731707317073
0.0909090909091
0.0403225806452
0.0851063829787
0.0757575757576
0.047619047619
0.0392156862745
0.0408163265306
0.064
0.0444444444444
0.0886075949367
0.078125
0.0909090909091
0.0526315789474
0.0357142857143
0.0714285714286
0.0593220338983
0.08
0.0909090909091
0.0655737704918
0.031847133758
0.0545454545455
0.0933333333333
0.0510948905109
0.093023255814
0.0421052631579
0.0714285714286
0.0625
0.0677966101695
0.0718562874251
0.0684931506849
0.0674157303371
