0.432988
0.382678
0.372161
0.364077
0.626747
0.333755
0.399478
0.71872
0.915302
0.0148128
0.50952
0.47641
0.455044
0.0058656
0.975278
0.965231
0.000741963
5.73438e-05
0.0318091
0.138433
0.0459053
0.380378
1.13531e-05
0.000100796
0.996531
0.000121912
0.0076984
9.63656e-05
0.000259898
0.315989
1
0.000506253
0.332871
0.127019
3.69903e-05
0.560452
0.00134692
0.000104298
0.00235182
0.0153741
0.00510765
0.000797447
0.00312985
0.746189
0.000221323
0.00608432
1
0.00503927
0.000428021
0.999994
0.0164326
0.00301264
0.030272
0.0297528
3.13349e-09
6.83184e-05
0.00250489
0.0496011
0.00438942
0.259706
0.0217614
0
0.462688
0.126034
0.272035
0.954319
0.364925
0.000918863
0.00808156
0.321546
0.0164605
0.000419972
0.229227
0.982218
0.931923
2.31037e-05
0.996935
1.84047e-26
0.85865
0.411705
0.580467
0.00120453
0.86981
0.156654
0.8943
0.40808
0.921821
0.92811
0.999975
0.761625
0.94203
0.985488
0.852791
0.998627
0.588673
0.269692
0.297858
0.416493
0.991297
0.201367
0.992915
0.846792
0.000996209
0.360515
0.00187095
6.99472e-07
0.0931079
0.0058656
0.982988
0.0058656
0.218005
0.0221621
0.0058656
0.0249187
0.000481013
3.99176e-11
0.02
9.42694e-06
1.33331e-05
0.801856
0.607612
0.000411984
0.396258
0.288355
0.359944
0.968456
0.313883
0.235765
0.12386
0.569574
0.398536
0.0279572
0.125342
0.318432
0.421803
0.800317
0.182585
0.0058656
0.0377075
0.510937
0.710259
0.000207967
5.52906e-06
0.950188
0.142463
1.30483e-15
4.80249e-38
8.52827e-23
4.76441e-44
2.8026e-44
3.92364e-44
4.10338e-22
4.97837e-22
2.411e-21
7.00171e-19
0
7.24208e-33
1.49474e-12
2.50975e-07
0.793201
9.06347e-38
3.49579e-26
1.55739e-13
3.11338e-14
0
4.6768e-13
5.47242e-10
1.17813e-09
3.3311e-18
4.96334e-18
8.30915e-20
1.05238e-11
4.79025e-22
6.09552e-05
0.994156
1.46908e-09
0.00397526
0.261762
2.44944e-08
0
0
0
0.000142544
1.81799e-37
3.68453e-27
2.35949e-31
6.99472e-07
0
2.45322e-11
0
6.50646e-18
0.744065
3.68651e-39
5.80641e-27
3.4955e-19
1.66755e-43
4.70518e-31
0
0
3.40848e-08
1.86159e-18
4.25859e-33
1.55446e-05
1.41117e-10
8.27536e-14
2.04168e-26
5.38723e-18
9.42694e-06
0.66
0.145389
0.685687
1.33331e-05
0.527561
0.343065
0.0058656
0.92727
0.5
0.602031
0.00187095
0.0058656
0.0058656
5.52906e-06
0.350863
0.932169
0.252943
0.0058656
0.0058656
0.594064
0.204971
0.234846
0.080746
0.0221621
0.00187095
3.54163e-08
0.522837
5.52906e-06
0.0456508
0.893768
0.0058656
0.0058656
0.0221621
0.818354
0.59474
0.888914
0.831558
0.100284
0.5994
6.99472e-07
0.15334
0.607612
6.71664e-05
0.000815903
0.0147072
0.657065
0.000566681
0.403762
0.681711
0.583058
0.000133552
0.00429645
0.835615
0.831298
0.00187095
0.100108
0.374321
0.766069
0.0405326
0.485722
0.104401
0.977234
0.266887
0.0221621
0.00187095
2.26006e-08
0.146847
0.0058656
0.0922732
0.0221621
6.71664e-05
0.0221621
0.440419
0.080746
0.605799
0.191363
0.534485
0.38011
0.0221621
0.293591
0.0058656
0.767095
0.0435222
3.93342e-15
0.00173091
0.86172
0.355087
0.279378
0.000411984
5.52906e-06
0.898071
0.274814
0.225193
6.71664e-05
0.000219603
0.773058
0.00187095
0.00187095
0.0253843
0.180569
0.31748
0.716595
0.519034
6.99472e-07
0.632533
0.0674803
0.293362
1.03095e-06
4.49525e-10
1.33331e-05
0.000411984
0.00187095
0.663511
0.570714
2.26006e-08
0.00187095
0.0625499
0.734439
0.763856
0.0058656
0.02
0.02
0.999807
0.996597
0.996646
0.0221621
0.999789
0.996597
0.02
0.077356
6.99472e-07
0.700218
0.0625499
1.33331e-05
0.000411984
0.229708
0.139876
0.000411984
0.145389
0.497461
0.0058656
3.6127e-11
0.00791855
6.98386e-05
0.00870472
0.0168489
0.702025
0.701899
0.195546
0.71725
0.798852
0.130526
2.80455e-26
2.26006e-08
0.806605
0.685961
0.085962
0.515892
0.004709
1.14919e-06
0.000313404
0.68547
0.708528
0.384329
0.44158
0.00187095
0.0124042
0.373295
0.0626999
0.190636
0.258434
0.346864
0.611913
0.00266632
0.00907312
0.391945
0.425625
0.000411984
6.71664e-05
0.251321
0.052315
0.972235
0.856113
0.00133902
1.33331e-05
0.283405
0.00148118
0.817036
0.455471
0.887004
1.30483e-15
0.812925
0.641714
0.000133602
1.01738e-09
0.216467
0.709731
0.0453307
0.880418
0.00187095
0.181258
0.0364805
0.237781
0.717712
0.158121
0.181135
0.537886
0.0753976
0.279601
0.202645
0.0735252
0.0932978
0.0407414
0.190545
5.52906e-06
0.0308589
0.71215
0.9468
0.667146
0.0941654
0.845414
0.860496
0.62439
1.50321e-13
3.45353e-05
0.439806
0.775568
0.217085
0.528561
0.0604725
0.02
4.42314e-08
0.0707707
0.116387
0.550319
0.31935
0.34786
0.737658
0.404255
0.0062008
0.709434
0.266315
0.0224793
9.50611e-05
0.243476
0.0135058
0.00855237
0.111782
6.71664e-05
0.00215942
0.629855
9.39638e-08
1.33331e-05
0.876905
0.128485
0.795392
0.0207293
0.865618
0.339188
0.0467461
0.724364
0.311141
0.000411984
0.841906
0.176783
0.0221621
0.795754
0.0058656
2.39502e-06
0.973828
0.0201996
0.0248912
0.818589
0.775643
0.00719345
0.0835851
0.011201
0.583817
0.771773
0.775992
0.32176
0.00513213
0.610984
0.856615
0.290164
0.937763
0.0058656
0.430356
0.187019
1.33331e-05
0.0192132
0.741566
0.573211
0.831298
0.485334
0.404255
0.742044
0.456334
0.00343899
0.387294
0.0921838
6.99472e-07
0.000411984
1.33331e-05
0.00545923
0.454942
0.253592
0.706577
0.80773
0.946801
0.194617
0.360182
0.852508
0.908066
0.748814
0.166413
0.58057
1.33331e-05
0.781161
6.71664e-05
2.8314e-08
0.0327841
0.903987
0.126042
0.79693
0.522591
0.433205
0.678525
0.502408
0.912083
0.875654
0.861402
0.525196
0.532292
0.996685
0.971409
0.9762
0.000757573
0.00444448
2.26006e-08
5.43161e-13
2.71526e-13
3.69405e-19
0.510342
0.0366582
0.888588
6.43868e-08
6.41115e-11
0.752987
0.0058656
0.677613
0.14314
0.37035
0.00215942
0.6146
0.168702
0.604805
0.453607
0.825417
0.000411984
0.0162726
0.0411825
0.0989217
0.00213284
0.959025
0.486768
0.275912
0.83967
0.802401
0.49956
0.00249078
0.0654841
0.303943
0.450065
0.885179
0.48571
0.113567
0.308337
0.96072
0.000238954
0.00207919
0.80285
0.804867
0.863908
0.458151
2.20664e-10
0.811884
0.449634
0.268133
0.131446
0.182473
0.988528
0.798199
0.345322
0.852146
0.911475
0.0784786
0.994675
0.166692
0.682969
0.442372
0.962582
0.969789
0.431318
2.26006e-08
0.945091
0.20826
0.166034
0.00248834
0.204966
0.312151
0.466689
0.0376046
0.453288
0.701818
0.0446032
0.415179
0.529143
0.42167
0.145389
0.247361
0.00136009
0.611457
0.979801
0.98549
0.980359
0.692406
0.875051
0.828278
0.242987
5.52906e-06
0.961467
5.52906e-06
0.000333703
1.15033e-20
0.686055
0.939334
0.848082
0.999866
0.196972
0.785665
0.219548
6.71664e-05
0.278636
0.000652271
0.0784422
0.975903
0.178208
0.483361
0.555725
0.554201
0.0842037
0.495834
0.94929
0.421052
0.847217
0.626705
0.398328
0.804223
0.126784
0.985891
0.595644
0.870933
0.969385
0.129278
0.94776
0.612258
2.82191e-05
0.0825187
0.102087
0.368302
0.287423
0.786309
0.290944
0.402468
0.0013243
0.636381
0.779739
0.626321
0.748218
0.722787
0.798635
0.134692
0.271576
0.0955495
0.941136
0.851886
0.532354
0.997623
0.977912
0.871879
0.98812
0.468193
0.724882
0.00291064
0.0341727
0.127533
0.0663242
0.0880564
0.451525
0.0275136
0.275751
0.268773
0.147475
0.037567
0.058061
0.673997
0.0881096
0.411635
0.194464
0.394742
0.14147
0.00511673
0.0592049
0.00829483
0.000231971
0.430322
0.139535
0.67338
6.61498e-06
2.64197e-05
0.000411984
0.339906
0.0058656
0.00187095
5.58799e-15
0.625428
0.683425
0.737168
1.33331e-05
0.0058656
0.0792328
0.0177944
0.00187095
0.0058656
0.0058656
0.0058656
0.000411984
0.498274
0.568866
0.26298
0.0846985
0.756064
0.38593
0.226691
0.583624
0.343507
0.746121
0.0710039
0.221306
0.663114
0.797017
0.711884
0.0425991
0.257966
0.050579
0.291935
0.200442
0.93404
0.353119
0.140844
0.968032
0.00304236
0.06
0.0949329
4.54206e-05
0.0058656
0.0058656
0.548121
0.0292928
0.977612
0.31312
0.564844
0.0722194
0.449235
0.840737
0.288695
6.71664e-05
0.000411984
0.965037
0.1
0.00429936
0.167715
0.44
5.56696e-05
0.0707707
0.00951049
0.0785113
0.00911214
0.000542974
3.41077e-05
0.839082
7.63076e-05
0.00555893
0.0331351
0.000885116
0.0059669
3.72022e-07
0.0133293
0.000799481
5.24738e-27
0.52
0.0244199
0.000129128
5.60519e-44
1.36642e-11
8.17066e-23
0.000168509
0.0208842
1.43248e-09
0.000142181
0.000632106
0.0127498
3.75093e-10
1.32838e-08
0.0015721
2.51551e-05
3.15826e-30
2.78845e-05
3.42225e-09
7.39406e-06
0.0213352
1.02096e-10
0.0355714
3.52146e-42
7.35671e-05
0.00992398
0.905956
0.0140848
1.4832e-05
0.00464265
2.04728e-08
2.98109e-10
0
0
0
0
9.72269e-11
0.00663729
2.26006e-08
0.592253
0.340858
0.456033
0.000411984
0.329396
0.603537
7.04341e-05
0.00020549
0.742215
2.26006e-08
0.945242
0.00165681
0.0196225
0.000798307
0.000411984
0.785752
0.335928
0.623515
0.00533171
0.855506
0.519566
0.513814
9.50611e-05
2.59981e-07
0.457239
0.855288
0.793693
0.503964
0.879838
0.364597
0.79373
0.37995
0.297839
0.281486
0.998125
0.0246506
0.42
0.0967644
0.600818
0.10895
0.839956
0.019302
0.964835
0.997034
0.523489
2.70849e-08
2.26006e-08
0.000411984
1.33331e-05
0.637622
0.885613
0.965597
0.000411984
0.0221621
0.000411984
0.73483
0.840568
0.527393
0.338855
0.0177233
3.31625e-15
0.00187095
0.983481
0.501542
0.34069
0.362287
0.621073
0.883805
0.329366
0.00567744
0.636532
0.853594
0.222179
0.0164284
0.00150379
1.33331e-05
0.183362
4.08386e-11
0.977644
0.892327
0.96724
0.99895
0.917384
0.428843
0.997597
0.000124515
0.631876
3.75937e-20
0.128343
0.946183
0.879194
0.784982
0.0058656
0.0688148
0.000481013
0.32
0.51241
0.0058656
0.149105
0.543076
0.0870779
0.116755
0.888645
0.775568
0.691871
0.0934132
0.73483
0.0516872
0.920501
0.000691601
8.92121e-07
0.000692184
1.56362e-05
0.000614894
0.00187095
0.752618
0.0117892
6.71664e-05
0.764267
0.0101127
0.897035
0.333755
0.794767
6.71664e-05
0.407747
0.0593842
0.0256605
0.41656
0.00187095
0.842333
7.15071e-08
0.0058656
0.4587
0.209188
2.08307e-12
0.0662294
0.0153266
0.00131827
0.085565
0.351109
0.542516
0.310189
0.000934457
0.470313
0.000161392
0.211696
0.146944
0.383728
0.000133494
0.0346518
0.0122353
0.215483
0.369892
0.0239856
0.977876
1
0.0206257
0.392568
0.703827
0.0110715
0.0169029
4.0387e-08
0.0967372
6.19051e-06
0.0114178
1.12255e-29
2.39158e-27
0
0.58
0.878371
0.192892
0.617121
0.44307
0.248351
0.0106406
0.0243922
0.078682
0.0121435
0.596749
0.539037
0.0713759
8.42681e-09
0.0487163
0.00498293
0.308129
0.00685739
0.000326048
4.7877e-11
1.08602e-05
0.0120816
5.74867e-07
0.0112566
0.17371
3.24903e-05
0.00805123
0.00209308
5.84786e-09
0.000172563
3.13423e-08
0.197777
3.83845e-37
1.03056e-06
2.10475e-39
4.88402e-06
2.46635e-05
8.99617e-10
1.77272e-05
2.80849e-05
4.785e-10
0
2.93463e-05
0.674519
0.0622072
1.05191e-05
0.000110097
0.01488
0.98
0.00153946
0.00740154
0.401962
0.132938
0.000830705
0.0886428
0.230191
0.00653337
0.011932
1.65752e-08
2.48099e-25
0.357405
0.489428
1.43071e-12
0.0769344
4.08153e-17
0.00277078
5.22692e-09
1.62149e-33
3.12143e-11
1.8248e-06
0.000419753
0.251321
0.0595232
0.0846253
0.00214893
0.00825752
0.00137205
0.00590549
0
0.200896
5.99406e-06
8.1482e-13
2.00606e-10
0.480825
0
8.50502e-07
0.0156816
2.82118e-06
1.51763e-06
4.46005e-07
0.185719
7.08018e-09
0.624011
0.0221621
9.25908e-33
0.00250602
7.62454e-07
3.3205e-25
1.51157e-33
1.58248e-26
3.94824e-32
0.378793
0.000370893
6.06567e-08
0.292086
0.000293201
0.784982
0.784982
0.403223
1.73035e-19
0.0568748
0.0157135
0.637622
0.175997
0.00187095
0.00248765
0.00187095
0.185364
0.0221621
0.0703243
0.0242307
0.000894484
0.740326
0.0505719
0.76218
0.0288954
5.52906e-06
6.71664e-05
6.71664e-05
0.421428
0.06
0.205815
5.52906e-06
0.969686
6.71664e-05
2.75158e-05
0.00010357
0.853153
0.420379
0.955739
0.996935
0.162453
0.607474
0.201783
0.477182
0.172586
0.180184
0.7357
0.000411984
0.106656
0.462963
0.0588086
0.000411984
0.00187095
0.183166
0.00187095
0.872827
0.211317
0.409395
6.71664e-05
0.0831545
0.0366953
0.963077
0.98
0.00187095
0.868432
0.00187095
0.471434
0.000411984
0.0469927
0.71014
0.360777
